<?xml version="1.0" encoding="UTF-8"?>
<svg xmlns="http://www.w3.org/2000/svg" xmlns:xlink="http://www.w3.org/1999/xlink" width="190.585" height="74.896" viewBox="0 0 190.585 74.896">
<defs>
<g>
<g id="glyph-0-0">
<path d="M 0.25 0 L 0.25 -1.25 L 1.25 -1.25 L 1.25 0 Z M 0.28125 -0.03125 L 1.21875 -0.03125 L 1.21875 -1.21875 L 0.28125 -1.21875 Z M 0.28125 -0.03125 "/>
</g>
<g id="glyph-0-1">
<path d="M 0.078125 -0.703125 C 0.078125 -0.875 0.09375 -1.015625 0.140625 -1.109375 C 0.171875 -1.21875 0.21875 -1.296875 0.296875 -1.359375 C 0.359375 -1.40625 0.4375 -1.4375 0.546875 -1.4375 C 0.625 -1.4375 0.6875 -1.421875 0.75 -1.390625 C 0.8125 -1.359375 0.859375 -1.3125 0.890625 -1.25 C 0.9375 -1.203125 0.96875 -1.125 0.984375 -1.046875 C 1 -0.953125 1.015625 -0.84375 1.015625 -0.703125 C 1.015625 -0.53125 1 -0.40625 0.96875 -0.296875 C 0.9375 -0.203125 0.875 -0.109375 0.8125 -0.0625 C 0.734375 0 0.65625 0.03125 0.546875 0.03125 C 0.40625 0.03125 0.296875 -0.03125 0.21875 -0.125 C 0.125 -0.234375 0.078125 -0.4375 0.078125 -0.703125 Z M 0.265625 -0.703125 C 0.265625 -0.46875 0.296875 -0.3125 0.34375 -0.234375 C 0.40625 -0.15625 0.46875 -0.125 0.546875 -0.125 C 0.625 -0.125 0.703125 -0.15625 0.75 -0.234375 C 0.8125 -0.3125 0.828125 -0.46875 0.828125 -0.703125 C 0.828125 -0.9375 0.8125 -1.09375 0.75 -1.171875 C 0.703125 -1.25 0.625 -1.296875 0.546875 -1.296875 C 0.46875 -1.296875 0.40625 -1.25 0.359375 -1.1875 C 0.296875 -1.109375 0.265625 -0.9375 0.265625 -0.703125 Z M 0.265625 -0.703125 "/>
</g>
<g id="glyph-0-2">
<path d="M 0.1875 0 L 0.1875 -0.203125 L 0.375 -0.203125 L 0.375 0 Z M 0.1875 0 "/>
</g>
<g id="glyph-0-3">
<path d="M 1 -0.171875 L 1 0 L 0.0625 0 C 0.0625 -0.046875 0.0625 -0.078125 0.078125 -0.125 C 0.109375 -0.1875 0.140625 -0.25 0.203125 -0.3125 C 0.25 -0.375 0.328125 -0.453125 0.421875 -0.53125 C 0.578125 -0.65625 0.6875 -0.75 0.734375 -0.828125 C 0.796875 -0.90625 0.828125 -0.96875 0.828125 -1.046875 C 0.828125 -1.109375 0.796875 -1.171875 0.75 -1.21875 C 0.703125 -1.265625 0.640625 -1.296875 0.546875 -1.296875 C 0.46875 -1.296875 0.40625 -1.265625 0.34375 -1.21875 C 0.296875 -1.15625 0.28125 -1.09375 0.28125 -1 L 0.09375 -1.015625 C 0.109375 -1.15625 0.15625 -1.265625 0.234375 -1.328125 C 0.3125 -1.40625 0.421875 -1.4375 0.5625 -1.4375 C 0.6875 -1.4375 0.796875 -1.390625 0.890625 -1.328125 C 0.96875 -1.25 1 -1.15625 1 -1.046875 C 1 -0.984375 0.984375 -0.921875 0.96875 -0.875 C 0.953125 -0.8125 0.90625 -0.75 0.859375 -0.703125 C 0.796875 -0.640625 0.703125 -0.546875 0.578125 -0.4375 C 0.46875 -0.359375 0.40625 -0.296875 0.375 -0.265625 C 0.34375 -0.234375 0.328125 -0.203125 0.296875 -0.171875 Z M 1 -0.171875 "/>
</g>
<g id="glyph-0-4">
<path d="M 0.078125 -0.375 L 0.265625 -0.390625 C 0.28125 -0.296875 0.3125 -0.234375 0.359375 -0.1875 C 0.40625 -0.140625 0.46875 -0.125 0.546875 -0.125 C 0.625 -0.125 0.703125 -0.15625 0.75 -0.21875 C 0.8125 -0.28125 0.84375 -0.359375 0.84375 -0.46875 C 0.84375 -0.5625 0.8125 -0.640625 0.765625 -0.703125 C 0.703125 -0.765625 0.625 -0.796875 0.546875 -0.796875 C 0.484375 -0.796875 0.4375 -0.78125 0.390625 -0.75 C 0.34375 -0.734375 0.296875 -0.703125 0.28125 -0.65625 L 0.109375 -0.671875 L 0.25 -1.40625 L 0.96875 -1.40625 L 0.96875 -1.25 L 0.390625 -1.25 L 0.3125 -0.859375 C 0.40625 -0.921875 0.484375 -0.953125 0.59375 -0.953125 C 0.703125 -0.953125 0.8125 -0.90625 0.90625 -0.8125 C 0.984375 -0.734375 1.03125 -0.625 1.03125 -0.484375 C 1.03125 -0.359375 1 -0.234375 0.921875 -0.140625 C 0.828125 -0.03125 0.703125 0.03125 0.546875 0.03125 C 0.40625 0.03125 0.3125 -0.015625 0.21875 -0.078125 C 0.140625 -0.15625 0.09375 -0.25 0.078125 -0.375 Z M 0.078125 -0.375 "/>
</g>
<g id="glyph-0-5">
<path d="M 0.078125 -0.375 L 0.265625 -0.40625 C 0.28125 -0.296875 0.3125 -0.234375 0.359375 -0.1875 C 0.40625 -0.140625 0.46875 -0.125 0.546875 -0.125 C 0.625 -0.125 0.6875 -0.140625 0.75 -0.203125 C 0.8125 -0.265625 0.828125 -0.328125 0.828125 -0.421875 C 0.828125 -0.5 0.8125 -0.5625 0.75 -0.625 C 0.703125 -0.671875 0.640625 -0.703125 0.546875 -0.703125 C 0.515625 -0.703125 0.484375 -0.6875 0.4375 -0.671875 L 0.453125 -0.828125 C 0.453125 -0.828125 0.46875 -0.828125 0.484375 -0.828125 C 0.546875 -0.828125 0.625 -0.84375 0.6875 -0.890625 C 0.734375 -0.921875 0.765625 -0.984375 0.765625 -1.0625 C 0.765625 -1.125 0.75 -1.1875 0.703125 -1.234375 C 0.65625 -1.265625 0.609375 -1.296875 0.53125 -1.296875 C 0.46875 -1.296875 0.40625 -1.265625 0.359375 -1.234375 C 0.3125 -1.1875 0.296875 -1.125 0.28125 -1.03125 L 0.09375 -1.0625 C 0.125 -1.1875 0.171875 -1.28125 0.25 -1.34375 C 0.328125 -1.40625 0.421875 -1.4375 0.53125 -1.4375 C 0.609375 -1.4375 0.6875 -1.421875 0.75 -1.390625 C 0.8125 -1.359375 0.859375 -1.3125 0.890625 -1.25 C 0.9375 -1.1875 0.953125 -1.125 0.953125 -1.0625 C 0.953125 -1 0.9375 -0.953125 0.90625 -0.890625 C 0.875 -0.84375 0.8125 -0.796875 0.75 -0.78125 C 0.84375 -0.75 0.90625 -0.71875 0.953125 -0.65625 C 1 -0.59375 1.015625 -0.515625 1.015625 -0.421875 C 1.015625 -0.296875 0.96875 -0.1875 0.890625 -0.109375 C 0.796875 -0.015625 0.671875 0.03125 0.53125 0.03125 C 0.40625 0.03125 0.3125 -0.015625 0.21875 -0.09375 C 0.140625 -0.15625 0.09375 -0.265625 0.078125 -0.375 Z M 0.078125 -0.375 "/>
</g>
<g id="glyph-0-6">
<path d="M 0.640625 0 L 0.640625 -0.34375 L 0.03125 -0.34375 L 0.03125 -0.5 L 0.671875 -1.4375 L 0.828125 -1.4375 L 0.828125 -0.5 L 1.015625 -0.5 L 1.015625 -0.34375 L 0.828125 -0.34375 L 0.828125 0 Z M 0.640625 -0.5 L 0.640625 -1.140625 L 0.203125 -0.5 Z M 0.640625 -0.5 "/>
</g>
<g id="glyph-1-0">
</g>
<g id="glyph-1-1">
<path d="M 0.875 -3.421875 L 0.375 -3.421875 L 0.375 -2.921875 L 0.875 -2.921875 Z M 0.84375 -2.21875 L 0.421875 -2.21875 L 0.421875 0 L 0.84375 0 Z M 0.84375 -2.21875 "/>
</g>
<g id="glyph-1-2">
<path d="M 2.3125 -1.46875 C 2.3125 -1.859375 2.203125 -2.265625 1.59375 -2.265625 C 1.3125 -2.265625 1.03125 -2.140625 0.8125 -1.890625 L 0.8125 -2.25 L 0.40625 -2.25 L 0.40625 0 L 0.84375 0 L 0.84375 -1.21875 C 0.84375 -1.546875 0.984375 -1.9375 1.375 -1.9375 C 1.890625 -1.9375 1.890625 -1.578125 1.890625 -1.4375 L 1.890625 0 L 2.3125 0 Z M 2.3125 -1.46875 "/>
</g>
<g id="glyph-1-3">
<path d="M 1.8125 -2.140625 C 1.484375 -2.265625 1.234375 -2.28125 1.046875 -2.28125 C 0.921875 -2.28125 0.171875 -2.28125 0.171875 -1.625 C 0.171875 -1.390625 0.296875 -1.265625 0.375 -1.203125 C 0.546875 -1.03125 0.75 -0.984375 1.015625 -0.9375 C 1.25 -0.890625 1.515625 -0.84375 1.515625 -0.609375 C 1.515625 -0.296875 1.109375 -0.296875 1.03125 -0.296875 C 0.71875 -0.296875 0.421875 -0.40625 0.21875 -0.546875 L 0.15625 -0.171875 C 0.3125 -0.078125 0.625 0.046875 1.03125 0.046875 C 1.265625 0.046875 1.484375 0.015625 1.671875 -0.125 C 1.84375 -0.265625 1.90625 -0.484375 1.90625 -0.640625 C 1.90625 -0.734375 1.90625 -0.9375 1.6875 -1.125 C 1.5 -1.28125 1.328125 -1.328125 1.09375 -1.359375 C 0.796875 -1.421875 0.5625 -1.46875 0.5625 -1.6875 C 0.5625 -1.96875 0.921875 -1.96875 1 -1.96875 C 1.28125 -1.96875 1.5 -1.90625 1.75 -1.78125 Z M 1.8125 -2.140625 "/>
</g>
<g id="glyph-1-4">
<path d="M 0.859375 -0.234375 C 1.125 0 1.40625 0.046875 1.578125 0.046875 C 2.109375 0.046875 2.546875 -0.453125 2.546875 -1.109375 C 2.546875 -1.703125 2.21875 -2.265625 1.734375 -2.265625 C 1.5 -2.265625 1.125 -2.203125 0.84375 -1.96875 L 0.84375 -2.21875 L 0.421875 -2.21875 L 0.421875 0.96875 L 0.859375 0.96875 Z M 0.859375 -1.65625 C 0.96875 -1.796875 1.171875 -1.921875 1.40625 -1.921875 C 1.796875 -1.921875 2.125 -1.546875 2.125 -1.109375 C 2.125 -0.625 1.75 -0.28125 1.359375 -0.28125 C 1.28125 -0.28125 1.15625 -0.296875 1.03125 -0.390625 C 0.875 -0.515625 0.859375 -0.578125 0.859375 -0.671875 Z M 0.859375 -1.65625 "/>
</g>
<g id="glyph-1-5">
<path d="M 0.84375 -1.0625 C 0.84375 -1.59375 1.296875 -1.890625 1.734375 -1.890625 L 1.734375 -2.265625 C 1.3125 -2.265625 1 -2.046875 0.8125 -1.796875 L 0.8125 -2.25 L 0.421875 -2.25 L 0.421875 0 L 0.84375 0 Z M 0.84375 -1.0625 "/>
</g>
<g id="glyph-1-6">
<path d="M 2.125 -1.4375 C 2.125 -1.9375 1.734375 -2.28125 1.234375 -2.28125 C 0.921875 -2.28125 0.6875 -2.21875 0.40625 -2.078125 L 0.4375 -1.703125 C 0.609375 -1.8125 0.84375 -1.96875 1.234375 -1.96875 C 1.453125 -1.96875 1.6875 -1.796875 1.6875 -1.4375 L 1.6875 -1.234375 C 0.953125 -1.203125 0.21875 -1.046875 0.21875 -0.59375 C 0.21875 -0.34375 0.390625 0.046875 0.828125 0.046875 C 1.046875 0.046875 1.4375 0 1.703125 -0.1875 L 1.703125 0 L 2.125 0 Z M 1.6875 -0.703125 C 1.6875 -0.609375 1.6875 -0.484375 1.515625 -0.375 C 1.359375 -0.28125 1.15625 -0.28125 1.109375 -0.28125 C 0.828125 -0.28125 0.625 -0.40625 0.625 -0.59375 C 0.625 -0.90625 1.46875 -0.9375 1.6875 -0.953125 Z M 1.6875 -0.703125 "/>
</g>
<g id="glyph-1-7">
<path d="M 0.84375 -3.453125 L 0.421875 -3.453125 L 0.421875 0 L 0.84375 0 Z M 0.84375 -3.453125 "/>
</g>
<g id="glyph-1-8">
<path d="M 3.78125 -1.46875 C 3.78125 -1.859375 3.671875 -2.265625 3.0625 -2.265625 C 2.640625 -2.265625 2.375 -2.015625 2.265625 -1.859375 C 2.21875 -2 2.09375 -2.265625 1.59375 -2.265625 C 1.3125 -2.265625 1.03125 -2.140625 0.8125 -1.890625 L 0.8125 -2.25 L 0.40625 -2.25 L 0.40625 0 L 0.84375 0 L 0.84375 -1.21875 C 0.84375 -1.546875 0.984375 -1.9375 1.375 -1.9375 C 1.890625 -1.9375 1.890625 -1.578125 1.890625 -1.4375 L 1.890625 0 L 2.3125 0 L 2.3125 -1.21875 C 2.3125 -1.546875 2.453125 -1.9375 2.84375 -1.9375 C 3.359375 -1.9375 3.359375 -1.578125 3.359375 -1.4375 L 3.359375 0 L 3.78125 0 Z M 3.78125 -1.46875 "/>
</g>
<g id="glyph-1-9">
<path d="M 2.140625 -0.546875 C 1.859375 -0.34375 1.546875 -0.28125 1.328125 -0.28125 C 0.90625 -0.28125 0.578125 -0.640625 0.5625 -1.09375 L 2.1875 -1.09375 C 2.1875 -1.328125 2.171875 -1.65625 1.96875 -1.9375 C 1.796875 -2.1875 1.5 -2.28125 1.25 -2.28125 C 0.640625 -2.28125 0.171875 -1.75 0.171875 -1.125 C 0.171875 -0.484375 0.671875 0.046875 1.328125 0.046875 C 1.625 0.046875 1.921875 -0.03125 2.171875 -0.1875 Z M 0.59375 -1.390625 C 0.703125 -1.796875 1 -1.953125 1.25 -1.953125 C 1.46875 -1.953125 1.796875 -1.859375 1.890625 -1.390625 Z M 0.59375 -1.390625 "/>
</g>
<g id="glyph-1-10">
<path d="M 2.5 -2.265625 C 2.390625 -2.265625 2.0625 -2.265625 1.6875 -2.109375 L 1.671875 -2.109375 C 1.5 -2.234375 1.328125 -2.265625 1.171875 -2.265625 C 0.6875 -2.265625 0.328125 -1.875 0.328125 -1.453125 C 0.328125 -1.28125 0.390625 -1.09375 0.5 -0.953125 C 0.421875 -0.875 0.359375 -0.734375 0.359375 -0.546875 C 0.359375 -0.34375 0.4375 -0.21875 0.484375 -0.171875 C 0.203125 0 0.15625 0.21875 0.15625 0.34375 C 0.15625 0.71875 0.671875 1.015625 1.328125 1.015625 C 1.96875 1.015625 2.5 0.71875 2.5 0.34375 C 2.5 -0.359375 1.625 -0.359375 1.40625 -0.359375 L 0.9375 -0.359375 C 0.859375 -0.359375 0.640625 -0.359375 0.640625 -0.625 C 0.640625 -0.71875 0.6875 -0.765625 0.6875 -0.78125 C 0.859375 -0.671875 1.03125 -0.640625 1.171875 -0.640625 C 1.65625 -0.640625 2.03125 -1.015625 2.03125 -1.453125 C 2.03125 -1.609375 1.984375 -1.75 1.890625 -1.890625 C 1.875 -1.90625 1.875 -1.921875 1.875 -1.921875 C 1.875 -1.9375 2.171875 -1.9375 2.1875 -1.9375 C 2.203125 -1.9375 2.390625 -1.9375 2.5625 -1.921875 Z M 1.171875 -0.9375 C 0.90625 -0.9375 0.703125 -1.109375 0.703125 -1.453125 C 0.703125 -1.828125 0.953125 -1.953125 1.171875 -1.953125 C 1.4375 -1.953125 1.640625 -1.78125 1.640625 -1.453125 C 1.640625 -1.0625 1.390625 -0.9375 1.171875 -0.9375 Z M 1.40625 0.03125 C 1.53125 0.03125 2.109375 0.03125 2.109375 0.34375 C 2.109375 0.5625 1.734375 0.71875 1.328125 0.71875 C 0.90625 0.71875 0.53125 0.5625 0.53125 0.34375 C 0.53125 0.328125 0.53125 0.03125 0.9375 0.03125 Z M 1.40625 0.03125 "/>
</g>
<g id="glyph-1-11">
<path d="M 2.3125 -3.453125 L 1.890625 -3.453125 L 1.890625 -2 C 1.5625 -2.234375 1.25 -2.265625 1.09375 -2.265625 C 0.578125 -2.265625 0.171875 -1.734375 0.171875 -1.109375 C 0.171875 -0.46875 0.578125 0.046875 1.09375 0.046875 C 1.390625 0.046875 1.6875 -0.09375 1.875 -0.265625 L 1.875 0 L 2.3125 0 Z M 1.875 -0.625 C 1.75 -0.40625 1.5625 -0.28125 1.328125 -0.28125 C 0.96875 -0.28125 0.609375 -0.515625 0.609375 -1.09375 C 0.609375 -1.71875 1.03125 -1.9375 1.375 -1.9375 C 1.578125 -1.9375 1.75 -1.84375 1.875 -1.6875 Z M 1.875 -0.625 "/>
</g>
<g id="glyph-1-12">
<path d="M 2.5 -1.09375 C 2.5 -1.75 1.96875 -2.28125 1.328125 -2.28125 C 0.671875 -2.28125 0.15625 -1.75 0.15625 -1.09375 C 0.15625 -0.453125 0.671875 0.046875 1.328125 0.046875 C 1.96875 0.046875 2.5 -0.453125 2.5 -1.09375 Z M 1.328125 -0.296875 C 0.921875 -0.296875 0.578125 -0.578125 0.578125 -1.140625 C 0.578125 -1.703125 0.953125 -1.953125 1.328125 -1.953125 C 1.6875 -1.953125 2.0625 -1.703125 2.0625 -1.140625 C 2.0625 -0.578125 1.703125 -0.296875 1.328125 -0.296875 Z M 1.328125 -0.296875 "/>
</g>
<g id="glyph-1-13">
<path d="M 3.53125 -2.21875 L 3.15625 -2.21875 C 3.109375 -2.078125 2.828125 -1.234375 2.671875 -0.71875 C 2.625 -0.5625 2.578125 -0.40625 2.5625 -0.296875 C 2.53125 -0.5 2.359375 -1.03125 2.34375 -1.078125 L 1.984375 -2.21875 L 1.59375 -2.21875 C 1.453125 -1.78125 1.078125 -0.671875 1.046875 -0.296875 L 1.03125 -0.296875 C 1 -0.65625 0.625 -1.765625 0.546875 -2 C 0.515625 -2.125 0.515625 -2.125 0.484375 -2.21875 L 0.078125 -2.21875 L 0.796875 0 L 1.21875 0 C 1.21875 -0.015625 1.359375 -0.40625 1.53125 -0.96875 C 1.609375 -1.21875 1.765625 -1.6875 1.78125 -1.90625 L 1.796875 -1.90625 C 1.796875 -1.8125 1.828125 -1.703125 1.859375 -1.578125 C 1.90625 -1.453125 1.9375 -1.3125 1.96875 -1.203125 L 2.359375 0 L 2.8125 0 Z M 3.53125 -2.21875 "/>
</g>
</g>
<clipPath id="clip-0">
<path clip-rule="nonzero" d="M 3 0.492188 L 188.09375 0.492188 L 188.09375 63.09375 L 3 63.09375 Z M 3 0.492188 "/>
</clipPath>
<clipPath id="clip-1">
<path clip-rule="nonzero" d="M 0.492188 32 L 188 32 L 188 33 L 0.492188 33 Z M 0.492188 32 "/>
</clipPath>
<clipPath id="clip-2">
<rect x="0" y="0" width="189" height="64"/>
</clipPath>
<g id="source-5" clip-path="url(#clip-2)">
<g clip-path="url(#clip-0)">
<path fill="none" stroke-width="4.68" stroke-linecap="square" stroke-linejoin="miter" stroke="rgb(0%, 50%, 0%)" stroke-opacity="1" stroke-miterlimit="3.25" d="M 37.549531 109.038906 L 37.803438 109.292813 L 38.076875 109.546719 L 38.330781 109.820156 L 38.584688 110.113125 L 38.838594 110.386563 L 39.0925 110.679531 L 39.346406 110.992031 L 39.600313 111.285 L 39.854219 111.5975 L 40.108125 111.929531 L 40.381563 112.242031 L 40.635469 112.574063 L 40.889375 112.925625 L 41.143281 113.257656 L 41.397188 113.609219 L 41.651094 113.980313 L 41.905 114.331875 L 42.158906 114.702969 L 42.412813 115.093594 L 42.666719 115.464688 L 42.940156 115.855313 L 43.194063 116.245938 L 44.209688 117.886563 L 44.971406 119.175625 L 45.244844 119.624844 L 46.006563 120.9725 L 46.768281 122.37875 L 47.53 123.843594 L 47.803438 124.331875 L 49.072969 126.870938 L 49.580781 127.925625 L 49.834688 128.4725 L 50.108125 128.999844 L 51.12375 131.187344 L 52.393281 134.019375 L 52.666719 134.605313 L 52.920625 135.19125 L 53.174531 135.757656 L 53.428438 136.363125 L 53.93625 137.535 L 54.951875 139.956875 L 55.479219 141.187344 L 55.733125 141.792813 L 57.256563 145.542813 L 57.53 146.187344 L 57.783906 146.812344 L 58.037813 147.456875 L 58.291719 148.081875 L 59.56125 151.304531 L 59.815156 151.968594 L 60.088594 152.613125 L 60.3425 153.257656 L 60.596406 153.921719 L 60.850313 154.56625 L 61.358125 155.894375 L 61.612031 156.538906 L 62.119844 157.867031 L 62.393281 158.511563 L 63.155 160.50375 L 63.408906 161.148281 L 64.424531 163.804531 L 64.678438 164.449063 L 64.951875 165.113125 L 65.459688 166.44125 L 65.713594 167.085781 L 66.221406 168.413906 L 66.475313 169.058438 L 66.729219 169.7225 L 66.983125 170.367031 L 67.256563 171.011563 L 67.510469 171.675625 L 69.541719 176.831875 L 69.815156 177.456875 L 70.069063 178.101406 L 71.5925 181.851406 L 71.846406 182.456875 L 72.119844 183.081875 L 73.135469 185.50375 L 73.389375 186.089688 L 73.643281 186.695156 L 74.405 188.452969 L 74.678438 189.038906 L 74.932344 189.624844 L 75.947969 191.890469 L 76.201875 192.437344 L 76.455781 193.00375 L 76.709688 193.550625 L 76.983125 194.077969 L 77.237031 194.624844 L 77.490938 195.152188 L 77.744844 195.699063 L 77.99875 196.226406 L 78.252656 196.734219 L 78.506563 197.261563 L 79.014375 198.277188 L 79.268281 198.765469 L 79.541719 199.273281 L 80.049531 200.249844 L 80.303438 200.718594 L 80.557344 201.206875 L 81.065156 202.144375 L 81.826875 203.492031 L 82.100313 203.94125 L 82.862031 205.230313 L 83.62375 206.460781 L 84.131563 207.242031 L 84.405 207.632656 L 85.420625 209.117031 L 85.928438 209.820156 L 86.690156 210.81625 L 86.963594 211.12875 L 87.471406 211.75375 L 87.979219 212.339688 L 88.233125 212.613125 L 88.487031 212.906094 L 88.740938 213.16 L 88.994844 213.433438 L 89.268281 213.687344 L 89.522188 213.94125 L 90.03 214.41 L 90.283906 214.624844 L 90.537813 214.859219 L 90.791719 215.054531 L 91.045625 215.269375 L 91.299531 215.464688 L 91.553438 215.640469 L 91.826875 215.835781 L 92.080781 215.992031 L 92.334688 216.167813 L 92.8425 216.480313 L 93.350313 216.75375 L 93.858125 216.988125 L 94.131563 217.105313 L 94.639375 217.300625 L 95.401094 217.535 L 95.908906 217.652188 L 96.416719 217.730313 L 96.690156 217.769375 L 97.197969 217.808438 L 97.959688 217.808438 L 98.213594 217.788906 L 98.4675 217.749844 L 98.721406 217.730313 L 98.994844 217.69125 L 99.756563 217.515469 L 100.264375 217.359219 L 101.026094 217.06625 L 101.28 216.949063 L 101.553438 216.812344 L 101.807344 216.695156 L 102.06125 216.558438 L 102.822969 216.089688 L 103.584688 215.562344 L 103.858125 215.367031 L 104.112031 215.171719 L 104.619844 214.742031 L 105.381563 214.038906 L 106.416719 213.00375 L 106.670625 212.730313 L 107.432344 211.851406 L 107.940156 211.226406 L 108.194063 210.894375 L 108.447969 210.581875 L 108.701875 210.230313 L 109.229219 209.546719 L 109.483125 209.175625 L 109.737031 208.824063 L 109.990938 208.452969 L 111.006563 206.890469 L 111.28 206.480313 L 111.533906 206.070156 L 111.787813 205.640469 L 112.041719 205.230313 L 112.295625 204.781094 L 112.549531 204.351406 L 113.057344 203.452969 L 113.31125 202.984219 L 113.565156 202.535 L 113.838594 202.06625 L 114.854219 200.113125 L 115.108125 199.605313 L 115.362031 199.117031 L 115.615938 198.589688 L 115.869844 198.081875 L 116.143281 197.554531 L 116.651094 196.499844 L 117.666719 194.312344 L 118.428438 192.613125 L 118.701875 192.027188 L 118.955781 191.460781 L 119.463594 190.288906 L 119.7175 189.683438 L 119.971406 189.0975 L 120.733125 187.281094 L 121.006563 186.656094 L 121.260469 186.050625 L 122.022188 184.175625 L 122.276094 183.531094 L 122.53 182.906094 L 123.291719 180.9725 L 123.565156 180.327969 L 123.819063 179.663906 L 124.072969 179.019375 L 125.3425 175.699063 L 125.596406 175.015469 L 125.869844 174.351406 L 126.631563 172.300625 L 126.885469 171.636563 L 127.139375 170.952969 L 127.393281 170.249844 L 128.155 168.199063 L 128.428438 167.495938 L 128.682344 166.812344 L 128.93625 166.109219 L 129.190156 165.425625 L 129.697969 164.019375 L 129.951875 163.335781 L 130.459688 161.929531 L 130.733125 161.226406 L 130.987031 160.523281 L 131.240938 159.839688 L 132.510469 156.324063 L 132.764375 155.640469 L 133.018281 154.937344 L 133.291719 154.234219 L 133.545625 153.531094 L 133.799531 152.8475 L 134.053438 152.144375 L 134.307344 151.460781 L 134.56125 150.757656 L 134.815156 150.074063 L 135.069063 149.370938 L 135.322969 148.687344 L 135.596406 148.00375 L 135.850313 147.300625 L 136.358125 145.933438 L 136.612031 145.269375 L 137.119844 143.902188 L 137.37375 143.238125 L 137.627656 142.554531 L 137.881563 141.890469 L 138.155 141.226406 L 139.170625 138.570156 L 139.678438 137.281094 L 139.932344 136.617031 L 140.18625 135.9725 L 140.440156 135.3475 L 140.713594 134.702969 L 140.9675 134.077969 L 141.221406 133.433438 L 141.729219 132.183438 L 141.983125 131.577969 L 142.237031 130.952969 L 142.744844 129.742031 L 143.018281 129.136563 L 143.272188 128.550625 L 143.526094 127.945156 L 144.033906 126.773281 L 144.287813 126.206875 L 144.541719 125.620938 L 145.049531 124.488125 L 145.303438 123.94125 L 145.576875 123.374844 L 145.830781 122.827969 L 146.084688 122.300625 L 146.338594 121.75375 L 147.100313 120.171719 L 147.608125 119.156094 L 147.881563 118.648281 L 148.643281 117.183438 L 148.897188 116.714688 L 149.151094 116.226406 L 149.405 115.777188 L 149.658906 115.308438 L 150.166719 114.41 L 150.440156 113.980313 L 151.201875 112.69125 L 151.455781 112.281094 L 151.709688 111.890469 L 151.963594 111.480313 L 152.2175 111.089688 L 152.471406 110.718594 L 152.744844 110.327969 L 152.99875 109.976406 L 153.252656 109.605313 L 153.760469 108.902188 L 154.268281 108.238125 L 154.522188 107.925625 L 154.776094 107.593594 L 155.03 107.300625 L 155.303438 106.988125 L 155.557344 106.695156 L 156.319063 105.874844 L 157.080781 105.113125 L 157.334688 104.87875 L 157.608125 104.663906 L 158.115938 104.234219 L 158.877656 103.648281 L 159.131563 103.4725 L 159.385469 103.31625 L 159.639375 103.140469 L 159.893281 103.00375 L 160.166719 102.8475 L 160.420625 102.730313 L 160.674531 102.593594 L 160.928438 102.476406 L 161.690156 102.183438 L 162.197969 102.027188 L 162.471406 101.968594 L 162.725313 101.91 L 163.487031 101.792813 L 163.740938 101.773281 L 163.994844 101.773281 L 164.24875 101.75375 L 164.756563 101.792813 L 165.03 101.812344 L 165.791719 101.929531 L 166.045625 101.988125 L 166.807344 102.2225 L 167.06125 102.320156 L 167.315156 102.437344 L 167.588594 102.535 L 167.8425 102.671719 L 168.096406 102.788906 L 168.350313 102.925625 L 168.858125 103.238125 L 169.112031 103.413906 L 169.365938 103.570156 L 169.619844 103.765469 L 169.893281 103.960781 L 170.147188 104.156094 L 170.908906 104.800625 L 171.162813 105.035 L 171.924531 105.796719 L 172.178438 106.070156 L 172.451875 106.343594 L 173.213594 107.2225 L 173.721406 107.8475 L 174.229219 108.511563 L 174.483125 108.863125 L 174.756563 109.214688 L 175.010469 109.56625 L 175.518281 110.308438 L 176.28 111.480313 L 177.041719 112.710781 L 177.315156 113.140469 L 177.569063 113.570156 L 178.076875 114.468594 L 178.330781 114.937344 L 178.584688 115.386563 L 178.838594 115.855313 L 179.346406 116.831875 L 179.619844 117.320156 L 179.87375 117.827969 L 180.127656 118.31625 L 180.381563 118.843594 L 180.635469 119.351406 L 181.143281 120.406094 L 181.905 122.046719 L 182.178438 122.613125 L 182.432344 123.16 L 182.68625 123.726406 L 183.701875 126.070156 L 183.955781 126.675625 L 184.209688 127.261563 L 184.483125 127.886563 L 184.737031 128.492031 L 184.990938 129.117031 L 185.244844 129.7225 L 185.49875 130.367031 L 185.752656 130.992031 L 186.768281 133.570156 L 187.041719 134.234219 L 188.057344 136.890469 L 189.072969 139.624844 L 189.346406 140.327969 L 189.600313 141.011563 L 190.869844 144.527188 L 191.377656 145.9725 L 191.631563 146.675625 L 191.905 147.398281 L 192.666719 149.56625 L 192.920625 150.308438 L 193.174531 151.031094 L 193.428438 151.773281 L 193.682344 152.495938 L 194.190156 153.980313 L 194.7175 155.445156 L 196.240938 159.898281 L 196.494844 160.66 L 196.768281 161.402188 L 199.053438 168.081875 L 199.326875 168.824063 L 200.088594 171.050625 L 200.3425 171.773281 L 200.596406 172.515469 L 200.850313 173.238125 L 201.104219 173.980313 L 201.358125 174.702969 L 201.631563 175.425625 L 201.885469 176.167813 L 202.139375 176.890469 L 202.393281 177.593594 L 202.901094 179.038906 L 203.155 179.742031 L 203.408906 180.464688 L 203.916719 181.870938 L 204.190156 182.574063 L 204.444063 183.257656 L 204.697969 183.960781 L 204.951875 184.644375 L 205.205781 185.3475 L 205.459688 186.031094 L 205.713594 186.695156 L 205.9675 187.37875 L 206.221406 188.042813 L 206.494844 188.726406 L 206.74875 189.390469 L 207.002656 190.035 L 207.256563 190.699063 L 208.018281 192.632656 L 208.272188 193.257656 L 208.526094 193.902188 L 208.78 194.527188 L 209.053438 195.152188 L 210.069063 197.574063 L 211.084688 199.917813 L 211.358125 200.484219 L 211.612031 201.050625 L 212.627656 203.238125 L 213.135469 204.292813 L 213.643281 205.308438 L 213.916719 205.81625 L 214.170625 206.324063 L 214.424531 206.812344 L 214.678438 207.281094 L 214.932344 207.769375 L 215.18625 208.218594 L 215.440156 208.687344 L 215.947969 209.585781 L 216.221406 210.015469 L 216.729219 210.874844 L 217.237031 211.695156 L 217.99875 212.867031 L 218.252656 213.238125 L 218.506563 213.589688 L 218.78 213.960781 L 219.033906 214.292813 L 219.287813 214.644375 L 219.541719 214.976406 L 220.303438 215.913906 L 220.557344 216.206875 L 220.81125 216.480313 L 221.084688 216.773281 L 221.338594 217.027188 L 221.846406 217.554531 L 222.354219 218.023281 L 223.115938 218.667813 L 223.369844 218.863125 L 223.643281 219.038906 L 224.151094 219.390469 L 224.405 219.546719 L 225.166719 219.956875 L 225.674531 220.19125 L 225.928438 220.288906 L 226.201875 220.367031 L 226.709688 220.523281 L 227.2175 220.640469 L 227.471406 220.679531 L 227.725313 220.699063 L 227.979219 220.738125 L 228.760469 220.738125 L 229.268281 220.699063 L 229.522188 220.66 L 230.283906 220.484219 L 230.791719 220.327969 L 231.065156 220.230313 L 231.826875 219.87875 L 232.334688 219.605313 L 232.588594 219.449063 L 233.096406 219.0975 L 233.369844 218.921719 L 233.877656 218.531094 L 234.131563 218.31625 L 234.385469 218.081875 L 234.639375 217.867031 L 235.401094 217.105313 L 235.655 216.831875 L 235.928438 216.558438 L 236.43625 215.9725 L 236.944063 215.3475 L 237.705781 214.351406 L 237.959688 213.999844 L 238.233125 213.62875 L 238.740938 212.886563 L 238.994844 212.495938 L 239.24875 212.085781 L 239.502656 211.695156 L 239.756563 211.285 L 240.264375 210.425625 L 240.518281 209.976406 L 240.791719 209.527188 L 241.045625 209.077969 L 241.553438 208.140469 L 242.315156 206.675625 L 242.822969 205.66 L 243.096406 205.132656 L 243.604219 204.077969 L 244.112031 202.984219 L 245.127656 200.718594 L 245.381563 200.132656 L 245.655 199.527188 L 245.908906 198.94125 L 246.162813 198.335781 L 246.416719 197.710781 L 246.670625 197.105313 L 246.924531 196.480313 L 247.178438 195.835781 L 247.432344 195.210781 L 247.68625 194.56625 L 247.959688 193.902188 L 248.213594 193.257656 L 248.721406 191.929531 L 248.975313 191.245938 L 249.229219 190.581875 L 249.737031 189.214688 L 250.244844 187.808438 L 250.518281 187.105313 L 251.026094 185.699063 L 251.787813 183.531094 L 252.041719 182.788906 L 252.295625 182.06625 L 252.803438 180.581875 L 253.076875 179.839688 L 253.330781 179.0975 L 253.838594 177.574063 L 254.0925 176.831875 L 254.346406 176.070156 L 254.600313 175.288906 L 255.108125 173.765469 L 255.381563 172.984219 L 255.635469 172.202969 L 255.889375 171.44125 L 256.651094 169.0975 L 256.905 168.296719 L 257.412812 166.734219 L 257.666719 165.933438 L 257.940156 165.152188 L 258.194062 164.351406 L 258.701875 162.769375 L 258.955781 161.968594 L 259.209687 161.187344 L 259.971406 158.785 L 260.244844 157.984219 L 260.49875 157.202969 L 261.006562 155.601406 L 261.260469 154.820156 L 261.768281 153.218594 L 262.022187 152.437344 L 262.276094 151.636563 L 262.53 150.855313 L 262.803437 150.054531 L 263.565156 147.710781 L 263.819062 146.91 L 264.072969 146.12875 L 264.326875 145.367031 L 264.834687 143.804531 L 265.108125 143.042813 L 265.362031 142.261563 L 266.12375 139.976406 L 266.377656 139.234219 L 266.631562 138.4725 L 266.885469 137.730313 L 267.139375 136.968594 L 267.393281 136.226406 L 267.666719 135.50375 L 267.920625 134.761563 L 268.174531 134.038906 L 268.428437 133.296719 L 268.682344 132.574063 L 268.93625 131.870938 L 269.190156 131.148281 L 269.697969 129.742031 L 269.971406 129.038906 L 270.987031 126.304531 L 271.240937 125.640469 L 271.494844 124.956875 L 271.74875 124.312344 L 272.002656 123.648281 L 272.256562 123.00375 L 272.53 122.359219 L 273.545625 119.859219 L 274.053437 118.648281 L 274.56125 117.476406 L 274.834687 116.890469 L 275.596406 115.19125 L 276.104219 114.0975 L 276.865937 112.515469 L 277.119844 112.007656 L 277.393281 111.499844 L 277.901094 110.523281 L 278.662812 109.117031 L 279.170625 108.218594 L 279.678437 107.359219 L 279.951875 106.949063 L 280.205781 106.538906 L 280.713594 105.757656 L 281.475312 104.644375 L 281.729219 104.292813 L 281.983125 103.960781 L 282.256562 103.62875 L 283.018281 102.69125 L 283.272187 102.398281 L 283.78 101.851406 L 284.287812 101.343594 L 284.541719 101.109219 L 284.815156 100.874844 L 285.322969 100.445156 L 285.830781 100.054531 L 286.084687 99.87875 L 286.846406 99.41 L 287.119844 99.273281 L 287.627656 99.038906 L 288.135469 98.843594 L 288.389375 98.765469 L 289.151094 98.589688 L 289.405 98.550625 L 289.678437 98.531094 L 289.932344 98.511563 L 290.440156 98.511563 L 290.694062 98.531094 L 291.455781 98.648281 L 291.709687 98.726406 L 291.983125 98.785 L 292.237031 98.882656 L 292.490937 98.960781 L 293.252656 99.312344 L 293.506562 99.449063 L 294.014375 99.761563 L 294.268281 99.937344 L 294.541719 100.113125 L 294.795625 100.308438 L 295.557344 100.952969 L 295.81125 101.187344 L 296.319062 101.695156 L 296.572969 101.968594 L 296.846406 102.242031 L 297.354219 102.827969 L 297.608125 103.140469 L 298.369844 104.136563 L 298.62375 104.488125 L 299.131562 105.230313 L 299.405 105.601406 L 299.658906 105.992031 L 300.166719 106.812344 L 300.928437 108.101406 L 301.182344 108.550625 L 301.43625 109.019375 L 301.709687 109.488125 L 302.471406 110.952969 L 302.725312 111.460781 L 302.979219 111.988125 L 303.233125 112.495938 L 303.994844 114.136563 L 304.268281 114.702969 L 304.776094 115.835781 L 305.03 116.421719 L 305.283906 117.027188 L 305.537812 117.613125 L 305.791719 118.238125 L 306.045625 118.843594 L 306.299531 119.468594 L 306.572969 120.113125 L 307.334687 122.046719 L 307.588594 122.710781 L 307.8425 123.394375 L 308.096406 124.058438 L 308.350312 124.742031 L 308.858125 126.148281 L 309.131562 126.851406 L 309.385469 127.554531 L 310.147187 129.7225 L 310.908906 131.949063 L 311.162812 132.710781 L 311.416719 133.452969 L 311.690156 134.214688 L 311.944062 134.995938 L 312.197969 135.757656 L 312.705781 137.320156 L 312.959687 138.120938 L 313.213594 138.902188 L 313.721406 140.50375 L 313.994844 141.304531 L 314.24875 142.124844 L 314.502656 142.925625 L 315.518281 146.206875 L 315.772187 147.046719 L 316.026094 147.867031 L 316.28 148.706875 L 316.553437 149.546719 L 317.315156 152.06625 L 317.569062 152.925625 L 317.822969 153.765469 L 318.076875 154.624844 L 318.330781 155.464688 L 318.584687 156.324063 L 318.858125 157.163906 L 319.87375 160.601406 L 320.127656 161.44125 L 321.143281 164.87875 L 321.416719 165.738125 L 321.670625 166.5975 L 321.924531 167.437344 L 322.178437 168.296719 L 322.68625 169.995938 L 322.940156 170.855313 L 323.194062 171.695156 L 323.447969 172.554531 L 323.721406 173.394375 L 324.990937 177.593594 L 325.244844 178.413906 L 325.49875 179.25375 L 326.006562 180.894375 L 326.28 181.714688 L 326.533906 182.535 L 326.787812 183.335781 L 327.041719 184.156094 L 327.549531 185.757656 L 327.803437 186.538906 L 328.057344 187.339688 L 328.31125 188.120938 L 328.584687 188.902188 L 328.838594 189.683438 L 329.854219 192.730313 L 330.615937 194.956875 L 330.869844 195.679531 L 331.143281 196.402188 L 331.397187 197.124844 L 332.158906 199.234219 L 332.920625 201.285 L 333.174531 201.949063 L 333.447969 202.613125 L 333.701875 203.277188 L 333.955781 203.921719 L 334.209687 204.546719 L 334.463594 205.19125 L 334.7175 205.796719 L 334.971406 206.421719 L 335.225312 207.027188 L 335.479219 207.613125 L 335.733125 208.218594 L 336.006562 208.785 L 336.514375 209.917813 L 337.022187 211.011563 L 337.783906 212.593594 L 338.037812 213.081875 L 338.291719 213.589688 L 338.565156 214.077969 L 339.072969 215.015469 L 339.580781 215.913906 L 340.088594 216.773281 L 340.3425 217.183438 L 340.596406 217.574063 L 340.869844 217.984219 L 341.377656 218.726406 L 341.885469 219.429531 L 342.393281 220.093594 L 342.901094 220.718594 L 343.155 221.011563 L 343.428437 221.285 L 343.682344 221.558438 L 343.93625 221.812344 L 344.697969 222.515469 L 344.951875 222.710781 L 345.205781 222.925625 L 345.459687 223.101406 L 345.733125 223.277188 L 346.240937 223.589688 L 346.494844 223.726406 L 347.002656 223.960781 L 347.510469 224.156094 L 347.764375 224.234219 L 348.018281 224.292813 L 348.291719 224.351406 L 348.545625 224.390469 L 349.053437 224.429531 L 349.307344 224.429531 L 349.815156 224.390469 L 350.322969 224.312344 L 350.596406 224.25375 L 351.104219 224.0975 L 351.358125 223.999844 L 351.865937 223.765469 L 352.37375 223.492031 L 352.627656 223.31625 L 352.881562 223.16 L 353.155 222.964688 L 353.662812 222.574063 L 354.424531 221.870938 L 354.678437 221.617031 L 354.932344 221.343594 L 355.18625 221.050625 L 355.459687 220.757656 L 355.713594 220.464688 L 356.475312 219.468594 L 356.729219 219.117031 L 357.237031 218.374844 L 357.744844 217.593594 L 358.018281 217.163906 L 358.272187 216.75375 L 358.526094 216.324063 L 358.78 215.874844 L 359.033906 215.406094 L 359.287812 214.956875 L 359.795625 213.980313 L 360.049531 213.4725 L 360.322969 212.964688 L 360.830781 211.91 L 361.338594 210.81625 L 361.846406 209.683438 L 362.354219 208.511563 L 362.608125 207.906094 L 362.881562 207.281094 L 363.389375 206.031094 L 363.897187 204.742031 L 364.405 203.413906 L 364.912812 202.046719 L 365.166719 201.343594 L 365.440156 200.640469 L 365.694062 199.937344 L 366.201875 198.492031 L 366.709687 197.007656 L 367.471406 194.7225 L 367.744844 193.94125 L 368.252656 192.37875 L 369.014375 189.976406 L 369.776094 187.515469 L 370.03 186.675625 L 370.303437 185.835781 L 370.557344 184.995938 L 371.572969 181.558438 L 371.826875 180.679531 L 372.080781 179.820156 L 372.334687 178.94125 L 372.608125 178.042813 L 372.862031 177.163906 L 373.115937 176.265469 L 373.369844 175.386563 L 373.62375 174.488125 L 373.877656 173.570156 L 374.385469 171.773281 L 374.893281 169.937344 L 375.166719 169.019375 L 376.43625 164.429531 L 376.690156 163.492031 L 376.944062 162.574063 L 377.197969 161.636563 L 377.471406 160.718594 L 377.979219 158.843594 L 378.233125 157.925625 L 378.487031 156.988125 L 378.740937 156.070156 L 379.24875 154.195156 L 379.502656 153.277188 L 379.756562 152.339688 L 380.03 151.421719 L 380.537812 149.585781 L 380.791719 148.648281 L 381.553437 145.894375 L 381.807344 144.995938 L 382.06125 144.077969 L 382.334687 143.179531 L 382.588594 142.261563 L 383.096406 140.464688 L 383.350312 139.585781 L 383.604219 138.687344 L 384.619844 135.171719 L 384.893281 134.312344 L 385.147187 133.433438 L 385.401094 132.593594 L 385.655 131.734219 L 385.908906 130.894375 L 386.162812 130.035 L 386.416719 129.214688 L 386.670625 128.374844 L 387.197969 126.734219 L 388.213594 123.531094 L 388.4675 122.749844 L 388.721406 121.988125 L 388.975312 121.206875 L 389.229219 120.464688 L 389.483125 119.702969 L 389.756562 118.960781 L 390.010469 118.218594 L 390.518281 116.773281 L 391.026094 115.367031 L 391.787812 113.31625 L 392.041719 112.652188 L 392.315156 112.007656 L 392.822969 110.718594 L 393.076875 110.093594 L 393.584687 108.882656 L 394.0925 107.710781 L 394.346406 107.144375 L 394.619844 106.577969 L 395.127656 105.484219 L 395.381562 104.956875 L 395.889375 103.94125 L 396.397187 102.964688 L 396.651094 102.495938 L 396.905 102.046719 L 397.178437 101.5975 L 397.68625 100.738125 L 397.940156 100.3475 L 398.194062 99.937344 L 398.701875 99.195156 L 399.209687 98.492031 L 399.483125 98.16 L 399.990937 97.535 L 400.244844 97.242031 L 400.752656 96.695156 L 401.006562 96.44125 L 401.260469 96.206875 L 401.768281 95.777188 L 402.041719 95.581875 L 402.295625 95.386563 L 402.803437 95.074063 L 403.31125 94.800625 L 403.565156 94.683438 L 403.819062 94.585781 L 404.072969 94.507656 L 404.346406 94.429531 L 404.600312 94.370938 L 405.108125 94.292813 L 405.869844 94.292813 L 406.377656 94.370938 L 406.631562 94.429531 L 406.905 94.488125 L 407.412812 94.683438 L 407.920625 94.917813 L 408.682344 95.386563 L 408.93625 95.581875 L 409.209687 95.777188 L 409.463594 95.992031 L 409.971406 96.460781 L 410.225312 96.714688 L 410.733125 97.261563 L 410.987031 97.574063 L 411.240937 97.867031 L 411.494844 98.199063 L 411.768281 98.531094 L 412.022187 98.902188 L 412.276094 99.25375 L 412.783906 100.035 L 413.291719 100.855313 L 413.545625 101.285 L 413.799531 101.734219 L 414.072969 102.202969 L 414.326875 102.671719 L 414.834687 103.648281 L 415.088594 104.175625 L 415.3425 104.683438 L 415.850312 105.777188 L 416.358125 106.91 L 416.631562 107.495938 L 417.139375 108.706875 L 417.647187 109.956875 L 417.901094 110.601406 L 418.408906 111.929531 L 418.662812 112.613125 L 418.93625 113.296719 L 419.444062 114.702969 L 419.697969 115.425625 L 420.205781 116.91 L 420.9675 119.195156 L 421.221406 119.976406 L 421.494844 120.777188 L 422.002656 122.37875 L 422.256562 123.199063 L 422.510469 124.038906 L 422.764375 124.859219 L 423.018281 125.718594 L 423.272187 126.558438 L 423.526094 127.417813 L 423.78 128.296719 L 424.053437 129.175625 L 424.307344 130.054531 L 425.069062 132.749844 L 425.576875 134.585781 L 425.830781 135.523281 L 426.084687 136.44125 L 426.358125 137.37875 L 426.612031 138.335781 L 426.865937 139.273281 L 427.37375 141.187344 L 427.627656 142.163906 L 427.881562 143.120938 L 428.389375 145.074063 L 428.643281 146.070156 L 428.916719 147.046719 L 430.18625 152.027188 L 430.440156 153.042813 L 430.694062 154.038906 L 430.947969 155.054531 L 431.221406 156.070156 L 433.506562 165.210781 L 433.78 166.245938 L 434.795625 170.308438 L 435.049531 171.304531 L 435.557344 173.335781 L 435.81125 174.331875 L 436.084687 175.3475 L 437.100312 179.331875 L 437.354219 180.308438 L 437.608125 181.304531 L 438.115937 183.257656 L 438.369844 184.214688 L 438.643281 185.19125 L 439.151094 187.105313 L 439.405 188.042813 L 439.658906 188.999844 L 440.166719 190.874844 L 440.674531 192.710781 L 440.947969 193.62875 L 441.455781 195.425625 L 441.709687 196.304531 L 441.963594 197.202969 L 442.2175 198.062344 L 442.471406 198.94125 L 442.725312 199.800625 L 443.233125 201.480313 L 443.506562 202.320156 L 444.014375 203.960781 L 444.268281 204.761563 L 444.776094 206.324063 L 445.283906 207.867031 L 445.537812 208.62875 L 445.81125 209.370938 L 446.319062 210.81625 L 446.826875 212.2225 L 447.080781 212.906094 L 447.588594 214.234219 L 448.096406 215.523281 L 448.369844 216.148281 L 448.877656 217.359219 L 449.131562 217.945156 L 449.639375 219.077969 L 449.893281 219.624844 L 450.147187 220.152188 L 450.655 221.167813 L 450.928437 221.656094 L 451.182344 222.144375 L 451.944062 223.492031 L 452.451875 224.312344 L 452.705781 224.683438 L 452.959687 225.074063 L 453.233125 225.425625 L 453.487031 225.777188 L 454.24875 226.714688 L 454.756562 227.261563 L 455.264375 227.730313 L 455.518281 227.945156 L 455.791719 228.16 L 456.299531 228.511563 L 456.553437 228.667813 L 456.807344 228.804531 L 457.06125 228.921719 L 457.569062 229.117031 L 457.822969 229.195156 L 458.096406 229.234219 L 458.604219 229.312344 L 458.858125 229.312344 L 459.365937 229.273281 L 459.619844 229.234219 L 459.87375 229.156094 L 460.127656 229.0975 L 460.381562 228.999844 L 460.655 228.882656 L 461.162812 228.609219 L 461.416719 228.452969 L 461.670625 228.277188 L 461.924531 228.081875 L 462.178437 227.867031 L 462.68625 227.398281 L 462.959687 227.144375 L 463.721406 226.265469 L 463.975312 225.933438 L 464.483125 225.230313 L 464.737031 224.859219 L 464.990937 224.468594 L 465.244844 224.058438 L 465.518281 223.648281 L 466.026094 222.749844 L 466.28 222.281094 L 466.533906 221.792813 L 467.041719 220.777188 L 467.295625 220.249844 L 467.549531 219.702969 L 467.822969 219.136563 L 468.076875 218.570156 L 468.330781 217.984219 L 468.584687 217.37875 L 468.838594 216.75375 L 469.346406 215.464688 L 469.854219 214.136563 L 470.108125 213.433438 L 470.381562 212.730313 L 470.635469 212.027188 L 471.397187 209.800625 L 471.905 208.238125 L 472.412812 206.636563 L 472.68625 205.81625 L 472.940156 204.995938 L 473.194062 204.156094 L 473.701875 202.437344 L 473.955781 201.558438 L 474.7175 198.863125 L 474.971406 197.945156 L 475.244844 197.007656 L 475.752656 195.132656 L 476.006562 194.175625 L 476.768281 191.245938 L 477.276094 189.25375 L 477.53 188.238125 L 477.803437 187.2225 L 478.819062 183.081875 L 479.326875 180.9725 L 479.834687 178.824063 L 480.108125 177.749844 L 480.362031 176.675625 L 481.631562 171.206875 L 482.393281 167.867031 L 482.666719 166.75375 L 482.920625 165.640469 L 483.428437 163.394375 L 483.682344 162.261563 L 483.93625 161.148281 L 484.444062 158.882656 L 484.697969 157.769375 L 484.971406 156.636563 L 485.225312 155.50375 L 485.479219 154.390469 L 485.987031 152.124844 L 486.240937 151.011563 L 486.494844 149.87875 L 487.256562 146.538906 L 487.53 145.425625 L 488.037812 143.199063 L 488.291719 142.105313 L 488.545625 140.992031 L 489.053437 138.804531 L 489.307344 137.730313 L 489.56125 136.636563 L 489.834687 135.562344 L 490.088594 134.507656 L 490.3425 133.433438 L 490.850312 131.324063 L 491.612031 128.218594 L 492.119844 126.187344 L 492.393281 125.171719 L 492.901094 123.179531 L 493.408906 121.226406 L 493.662812 120.269375 L 493.916719 119.331875 L 494.170625 118.374844 L 494.424531 117.456875 L 494.697969 116.538906 L 494.951875 115.620938 L 495.205781 114.7225 L 495.713594 112.964688 L 496.221406 111.245938 L 496.475312 110.406094 L 496.983125 108.765469 L 497.256562 107.964688 L 497.510469 107.183438 L 498.018281 105.640469 L 498.272187 104.898281 L 498.78 103.452969 L 499.033906 102.749844 L 499.287812 102.06625 L 499.56125 101.382656 L 500.069062 100.093594 L 500.576875 98.843594 L 501.084687 97.671719 L 501.5925 96.577969 L 501.846406 96.050625 L 502.119844 95.523281 L 502.37375 95.035 L 502.881562 94.0975 L 503.135469 93.648281 L 503.643281 92.827969 L 503.897187 92.437344 L 504.151094 92.06625 L 504.424531 91.714688 L 504.678437 91.382656 L 505.18625 90.757656 L 505.440156 90.484219 L 505.947969 89.976406 L 506.201875 89.761563 L 506.709687 89.370938 L 506.983125 89.214688 L 507.237031 89.058438 L 507.490937 88.94125 L 507.99875 88.745938 L 508.506562 88.62875 L 509.014375 88.589688 L 509.268281 88.609219 L 509.541719 88.62875 L 509.795625 88.687344 L 510.303437 88.843594 L 510.557344 88.960781 L 511.065156 89.234219 L 511.319062 89.41 L 511.572969 89.605313 L 511.846406 89.800625 L 512.100312 90.035 L 512.354219 90.288906 L 512.862031 90.835781 L 513.115937 91.148281 L 513.369844 91.480313 L 513.877656 92.183438 L 514.131562 92.574063 L 514.405 92.984219 L 514.912812 93.843594 L 515.166719 94.312344 L 515.674531 95.288906 L 516.182344 96.343594 L 516.43625 96.91 L 516.709687 97.476406 L 516.963594 98.062344 L 517.2175 98.667813 L 517.725312 99.956875 L 518.233125 101.285 L 518.487031 101.988125 L 518.994844 103.433438 L 519.268281 104.195156 L 519.522187 104.956875 L 519.776094 105.738125 L 520.283906 107.339688 L 520.791719 109.019375 L 521.045625 109.87875 L 521.299531 110.757656 L 521.572969 111.656094 L 521.826875 112.554531 L 522.080781 113.4725 L 522.588594 115.3475 L 523.350312 118.277188 L 523.604219 119.273281 L 523.858125 120.288906 L 524.131562 121.324063 L 524.385469 122.359219 L 524.893281 124.468594 L 525.147187 125.542813 L 525.655 127.730313 L 526.162812 129.956875 L 526.43625 131.070156 L 526.690156 132.202969 L 527.197969 134.507656 L 527.959687 138.023281 L 528.721406 141.5975 L 528.994844 142.808438 L 529.24875 144.019375 L 529.502656 145.249844 L 529.756562 146.460781 L 530.264375 148.921719 L 530.772187 151.421719 L 531.026094 152.652188 L 531.299531 153.902188 L 531.553437 155.171719 L 532.06125 157.671719 L 532.569062 160.210781 L 532.822969 161.460781 L 533.584687 165.269375 L 533.858125 166.519375 L 534.619844 170.327969 L 534.87375 171.577969 L 535.127656 172.8475 L 536.143281 177.8475 L 536.416719 179.077969 L 536.670625 180.327969 L 537.178437 182.788906 L 537.432344 183.999844 L 537.68625 185.230313 L 537.940156 186.44125 L 538.194062 187.632656 L 538.447969 188.843594 L 538.721406 190.035 L 539.483125 193.550625 L 539.990937 195.855313 L 540.49875 198.120938 L 541.006562 200.3475 L 541.28 201.44125 L 541.533906 202.535 L 541.787812 203.609219 L 542.295625 205.718594 L 542.549531 206.75375 L 543.057344 208.785 L 543.31125 209.781094 L 543.584687 210.757656 L 543.838594 211.734219 L 544.0925 212.69125 L 544.346406 213.62875 L 544.600312 214.546719 L 545.108125 216.343594 L 545.362031 217.2225 L 545.615937 218.081875 L 545.869844 218.921719 L 546.143281 219.742031 L 546.651094 221.343594 L 547.158906 222.867031 L 547.666719 224.312344 L 547.920625 225.015469 L 548.174531 225.699063 L 548.447969 226.343594 L 548.701875 226.988125 L 548.955781 227.613125 L 549.463594 228.785 L 549.971406 229.87875 L 550.479219 230.894375 L 550.733125 231.363125 L 551.006562 231.812344 L 551.260469 232.242031 L 551.514375 232.652188 L 552.022187 233.394375 L 552.53 234.058438 L 552.783906 234.351406 L 553.037812 234.624844 L 553.31125 234.859219 L 553.565156 235.093594 L 553.819062 235.288906 L 554.072969 235.464688 L 554.326875 235.620938 L 554.580781 235.757656 L 554.834687 235.874844 L 555.088594 235.952969 L 555.3425 236.011563 L 555.596406 236.050625 L 555.869844 236.070156 L 556.12375 236.050625 L 556.377656 236.011563 L 556.631562 235.952969 L 556.885469 235.874844 L 557.139375 235.757656 L 557.393281 235.620938 L 557.647187 235.464688 L 557.901094 235.288906 L 558.174531 235.093594 L 558.428437 234.859219 L 558.682344 234.605313 L 558.93625 234.331875 L 559.190156 234.038906 L 559.444062 233.706875 L 559.697969 233.355313 L 559.951875 232.984219 L 560.205781 232.593594 L 560.459687 232.163906 L 560.733125 231.714688 L 560.987031 231.245938 L 561.240937 230.757656 L 561.494844 230.249844 L 562.002656 229.156094 L 562.256562 228.570156 L 562.510469 227.964688 L 562.764375 227.339688 L 563.018281 226.675625 L 563.291719 226.011563 L 563.545625 225.308438 L 564.053437 223.863125 L 564.307344 223.101406 L 564.815156 221.499844 L 565.069062 220.679531 L 565.322969 219.839688 L 565.596406 218.980313 L 566.104219 217.183438 L 566.612031 215.308438 L 566.865937 214.351406 L 567.37375 212.359219 L 567.627656 211.343594 L 567.881562 210.308438 L 568.155 209.234219 L 568.662812 207.085781 L 568.916719 205.9725 L 569.424531 203.706875 L 569.678437 202.554531 L 569.932344 201.382656 L 570.18625 200.19125 L 570.459687 198.999844 L 570.713594 197.788906 L 570.9675 196.558438 L 571.475312 194.058438 L 571.729219 192.788906 L 572.237031 190.210781 L 572.744844 187.593594 L 573.018281 186.265469 L 573.272187 184.937344 L 573.526094 183.589688 L 574.287812 179.488125 L 575.049531 175.327969 L 575.322969 173.921719 L 575.576875 172.515469 L 575.830781 171.089688 L 576.084687 169.683438 L 576.5925 166.831875 L 576.846406 165.386563 L 577.100312 163.960781 L 577.608125 161.070156 L 577.881562 159.624844 L 579.912812 148.062344 L 580.18625 146.636563 L 580.440156 145.19125 L 581.455781 139.488125 L 582.2175 135.269375 L 582.471406 133.882656 L 582.744844 132.495938 L 583.506562 128.394375 L 584.014375 125.699063 L 584.268281 124.370938 L 584.776094 121.75375 L 585.049531 120.464688 L 585.303437 119.175625 L 585.557344 117.906094 L 586.065156 115.406094 L 586.826875 111.773281 L 587.080781 110.601406 L 587.334687 109.449063 L 587.608125 108.296719 L 587.862031 107.163906 L 588.115937 106.050625 L 588.369844 104.956875 L 588.62375 103.882656 L 588.877656 102.827969 L 589.131562 101.792813 L 589.385469 100.777188 L 589.639375 99.781094 L 589.912812 98.804531 L 590.166719 97.8475 L 590.674531 96.011563 L 591.182344 94.25375 L 591.43625 93.413906 L 591.690156 92.593594 L 592.197969 91.031094 L 592.471406 90.288906 L 592.725312 89.56625 L 592.979219 88.863125 L 593.233125 88.199063 L 593.487031 87.554531 L 593.740937 86.929531 L 593.994844 86.343594 L 594.24875 85.777188 L 594.502656 85.230313 L 594.756562 84.7225 L 595.03 84.234219 L 595.283906 83.765469 L 595.537812 83.335781 L 595.791719 82.945156 L 596.045625 82.574063 L 596.299531 82.2225 L 596.553437 81.91 L 596.807344 81.617031 L 597.06125 81.363125 L 597.334687 81.12875 L 597.588594 80.933438 L 597.8425 80.757656 L 598.096406 80.620938 L 598.350312 80.523281 L 598.604219 80.445156 L 598.858125 80.386563 L 599.112031 80.367031 L 599.365937 80.386563 L 599.619844 80.425625 L 599.893281 80.484219 L 600.147187 80.581875 L 600.401094 80.718594 L 600.908906 81.070156 L 601.162812 81.304531 L 601.416719 81.558438 L 601.670625 81.831875 L 601.924531 82.163906 L 602.197969 82.495938 L 602.705781 83.277188 L 602.959687 83.726406 L 603.213594 84.195156 L 603.4675 84.683438 L 603.721406 85.210781 L 603.975312 85.757656 L 604.229219 86.343594 L 604.483125 86.968594 L 604.756562 87.613125 L 605.010469 88.296719 L 605.264375 88.999844 L 605.518281 89.7225 L 605.772187 90.484219 L 606.026094 91.265469 L 606.28 92.085781 L 606.533906 92.925625 L 606.787812 93.804531 L 607.06125 94.702969 L 607.315156 95.640469 L 607.569062 96.5975 L 607.822969 97.574063 L 608.076875 98.570156 L 608.330781 99.605313 L 608.584687 100.66 L 608.838594 101.75375 L 609.346406 103.980313 L 609.619844 105.152188 L 609.87375 106.324063 L 610.127656 107.535 L 610.381562 108.765469 L 610.635469 110.015469 L 610.889375 111.285 L 611.143281 112.574063 L 611.397187 113.882656 L 611.651094 115.210781 L 611.924531 116.577969 L 612.178437 117.945156 L 612.432344 119.331875 L 612.940156 122.183438 L 613.194062 123.62875 L 613.447969 125.093594 L 613.955781 128.062344 L 614.209687 129.585781 L 614.483125 131.109219 L 614.737031 132.652188 L 615.244844 135.777188 L 615.49875 137.359219 L 616.260469 142.163906 L 616.514375 143.804531 L 616.787812 145.425625 L 617.041719 147.06625 L 617.803437 152.046719 L 618.057344 153.726406 L 618.31125 155.386563 L 618.565156 157.085781 L 619.072969 160.445156 L 619.346406 162.144375 L 619.854219 165.542813 L 620.108125 167.2225 L 620.869844 172.320156 L 621.12375 173.999844 L 621.377656 175.699063 L 621.631562 177.37875 L 621.905 179.058438 L 622.158906 180.738125 L 622.920625 185.718594 L 623.428437 188.999844 L 623.93625 192.242031 L 624.209687 193.863125 L 624.971406 198.609219 L 625.733125 203.238125 L 625.987031 204.742031 L 626.494844 207.710781 L 626.768281 209.175625 L 627.276094 212.027188 L 627.53 213.433438 L 627.783906 214.820156 L 628.291719 217.515469 L 628.545625 218.824063 L 628.799531 220.113125 L 629.072969 221.382656 L 629.580781 223.843594 L 629.834687 225.035 L 630.3425 227.339688 L 630.850312 229.527188 L 631.104219 230.581875 L 631.358125 231.5975 L 631.631562 232.593594 L 631.885469 233.550625 L 632.139375 234.488125 L 632.393281 235.386563 L 632.647187 236.245938 L 632.901094 237.085781 L 633.155 237.886563 L 633.408906 238.667813 L 633.662812 239.390469 L 633.93625 240.093594 L 634.190156 240.757656 L 634.444062 241.402188 L 634.697969 241.988125 L 634.951875 242.554531 L 635.205781 243.081875 L 635.459687 243.550625 L 635.713594 243.999844 L 635.9675 244.429531 L 636.221406 244.800625 L 636.494844 245.132656 L 636.74875 245.425625 L 637.002656 245.679531 L 637.256562 245.913906 L 637.510469 246.089688 L 637.764375 246.226406 L 638.018281 246.343594 L 638.272187 246.402188 L 638.526094 246.421719 L 638.799531 246.402188 L 639.053437 246.343594 L 639.307344 246.245938 L 639.56125 246.109219 L 639.815156 245.933438 L 640.069062 245.718594 L 640.322969 245.464688 L 640.576875 245.152188 L 640.830781 244.820156 L 641.084687 244.449063 L 641.358125 244.019375 L 641.612031 243.550625 L 641.865937 243.062344 L 642.119844 242.515469 L 642.37375 241.929531 L 642.627656 241.324063 L 642.881562 240.66 L 643.135469 239.956875 L 643.389375 239.214688 L 643.662812 238.433438 L 643.916719 237.613125 L 644.170625 236.75375 L 644.424531 235.855313 L 644.678437 234.937344 L 644.932344 233.960781 L 645.18625 232.945156 L 645.440156 231.91 L 645.694062 230.81625 L 645.947969 229.702969 L 646.221406 228.550625 L 646.475312 227.359219 L 646.729219 226.12875 L 646.983125 224.87875 L 647.237031 223.570156 L 647.490937 222.242031 L 647.744844 220.894375 L 647.99875 219.488125 L 648.252656 218.062344 L 648.506562 216.617031 L 648.78 215.113125 L 649.033906 213.609219 L 649.541719 210.484219 L 650.049531 207.242031 L 650.303437 205.581875 L 650.557344 203.902188 L 650.81125 202.183438 L 651.084687 200.445156 L 651.338594 198.687344 L 651.5925 196.91 L 651.846406 195.113125 L 652.354219 191.44125 L 652.608125 189.56625 L 653.115937 185.777188 L 653.369844 183.863125 L 653.643281 181.929531 L 653.897187 179.976406 L 654.405 176.031094 L 654.912812 172.046719 L 655.166719 170.035 L 655.674531 165.9725 L 655.947969 163.94125 L 657.2175 153.687344 L 657.471406 151.617031 L 657.979219 147.515469 L 658.233125 145.445156 L 658.506562 143.394375 L 658.760469 141.363125 L 659.014375 139.312344 L 659.522187 135.249844 L 660.03 131.226406 L 660.537812 127.242031 L 660.81125 125.288906 L 661.065156 123.31625 L 661.319062 121.382656 L 661.826875 117.554531 L 662.080781 115.66 L 662.588594 111.949063 L 662.8425 110.132656 L 663.096406 108.335781 L 663.369844 106.558438 L 663.62375 104.820156 L 663.877656 103.101406 L 664.131562 101.402188 L 664.385469 99.742031 L 664.639375 98.101406 L 664.893281 96.499844 L 665.147187 94.917813 L 665.401094 93.374844 L 665.674531 91.870938 L 665.928437 90.406094 L 666.182344 88.980313 L 666.43625 87.574063 L 666.690156 86.226406 L 666.944062 84.898281 L 667.197969 83.609219 L 667.451875 82.37875 L 667.705781 81.187344 L 667.959687 80.015469 L 668.233125 78.902188 L 668.487031 77.8475 L 668.740937 76.812344 L 668.994844 75.835781 L 669.24875 74.917813 L 669.502656 74.019375 L 669.756562 73.199063 L 670.010469 72.398281 L 670.264375 71.675625 L 670.537812 70.9725 L 670.791719 70.3475 L 671.045625 69.761563 L 671.299531 69.234219 L 671.553437 68.745938 L 671.807344 68.31625 L 672.06125 67.945156 L 672.315156 67.632656 L 672.569062 67.359219 L 672.822969 67.144375 L 673.096406 66.988125 L 673.350312 66.890469 L 673.604219 66.851406 L 673.858125 66.870938 L 674.112031 66.929531 L 674.365937 67.06625 L 674.619844 67.242031 L 674.87375 67.476406 L 675.127656 67.788906 L 675.401094 68.140469 L 675.655 68.550625 L 675.908906 69.019375 L 676.162812 69.546719 L 676.416719 70.132656 L 676.670625 70.777188 L 676.924531 71.480313 L 677.178437 72.2225 L 677.432344 73.042813 L 677.68625 73.921719 L 677.959687 74.839688 L 678.213594 75.835781 L 678.4675 76.870938 L 678.721406 77.964688 L 678.975312 79.117031 L 679.229219 80.308438 L 679.483125 81.577969 L 679.737031 82.886563 L 679.990937 84.25375 L 680.244844 85.679531 L 680.518281 87.144375 L 680.772187 88.667813 L 681.026094 90.230313 L 681.28 91.851406 L 681.533906 93.531094 L 681.787812 95.249844 L 682.041719 97.007656 L 682.295625 98.824063 L 682.549531 100.679531 L 682.822969 102.593594 L 683.076875 104.546719 L 683.330781 106.519375 L 683.584687 108.550625 L 683.838594 110.640469 L 684.0925 112.749844 L 684.346406 114.898281 L 684.600312 117.06625 L 684.854219 119.292813 L 685.108125 121.558438 L 685.381562 123.843594 L 685.635469 126.167813 L 685.889375 128.511563 L 686.143281 130.894375 L 686.397187 133.296719 L 686.905 138.179531 L 687.158906 140.66 L 687.412812 143.16 L 687.68625 145.679531 L 687.940156 148.218594 L 688.194062 150.777188 L 688.701875 155.933438 L 689.209687 161.12875 L 689.971406 168.980313 L 690.244844 171.617031 L 691.514375 184.702969 L 692.022187 189.898281 L 692.276094 192.456875 L 692.549531 195.035 L 692.803437 197.574063 L 693.31125 202.613125 L 693.565156 205.093594 L 693.819062 207.554531 L 694.072969 209.976406 L 694.326875 212.37875 L 694.580781 214.761563 L 694.834687 217.105313 L 695.108125 219.41 L 695.362031 221.675625 L 695.615937 223.902188 L 695.869844 226.089688 L 696.12375 228.257656 L 696.377656 230.3475 L 696.631562 232.417813 L 696.885469 234.429531 L 697.139375 236.402188 L 697.412812 238.296719 L 697.666719 240.171719 L 697.920625 241.968594 L 698.174531 243.706875 L 698.428437 245.406094 L 698.682344 247.027188 L 698.93625 248.589688 L 699.190156 250.093594 L 699.444062 251.538906 L 699.697969 252.906094 L 699.971406 254.214688 L 700.225312 255.445156 L 700.479219 256.617031 L 700.733125 257.69125 L 700.987031 258.706875 L 701.240937 259.663906 L 701.494844 260.523281 L 701.74875 261.304531 L 702.002656 262.007656 L 702.276094 262.632656 L 702.53 263.179531 L 702.783906 263.648281 L 703.037812 264.019375 L 703.291719 264.312344 L 703.545625 264.527188 L 703.799531 264.644375 L 704.053437 264.683438 L 704.307344 264.624844 L 704.56125 264.488125 L 704.834687 264.273281 L 705.088594 263.960781 L 705.3425 263.550625 L 705.596406 263.042813 L 705.850312 262.456875 L 706.104219 261.792813 L 706.358125 261.031094 L 706.612031 260.171719 L 706.865937 259.214688 L 707.119844 258.179531 L 707.393281 257.06625 L 707.647187 255.855313 L 707.901094 254.546719 L 708.155 253.140469 L 708.408906 251.675625 L 708.662812 250.093594 L 708.916719 248.433438 L 709.170625 246.695156 L 709.424531 244.87875 L 709.697969 242.964688 L 709.951875 240.9725 L 710.205781 238.882656 L 710.459687 236.734219 L 710.713594 234.488125 L 710.9675 232.183438 L 711.221406 229.781094 L 711.475312 227.320156 L 711.729219 224.781094 L 711.983125 222.163906 L 712.256562 219.488125 L 712.510469 216.734219 L 712.764375 213.921719 L 713.018281 211.031094 L 713.272187 208.101406 L 713.526094 205.093594 L 713.78 202.046719 L 714.033906 198.921719 L 714.287812 195.777188 L 714.56125 192.554531 L 714.815156 189.292813 L 715.069062 185.992031 L 715.322969 182.652188 L 715.576875 179.273281 L 715.830781 175.855313 L 716.084687 172.417813 L 716.338594 168.94125 L 716.5925 165.445156 L 716.846406 161.91 L 717.119844 158.374844 L 717.627656 151.265469 L 717.881562 147.69125 L 718.389375 140.523281 L 718.897187 133.374844 L 719.151094 129.820156 L 719.424531 126.285 L 719.678437 122.749844 L 719.932344 119.25375 L 720.18625 115.777188 L 720.440156 112.339688 L 720.694062 108.921719 L 720.947969 105.562344 L 721.201875 102.2225 L 721.455781 98.94125 L 721.709687 95.718594 L 721.983125 92.535 L 722.237031 89.41 L 722.490937 86.363125 L 722.744844 83.374844 L 722.99875 80.464688 L 723.252656 77.632656 L 723.506562 74.87875 L 723.760469 72.202969 L 724.014375 69.605313 L 724.287812 67.105313 L 724.541719 64.702969 L 724.795625 62.398281 L 725.049531 60.210781 L 725.303437 58.120938 L 725.557344 56.12875 L 725.81125 54.273281 L 726.065156 52.515469 L 726.319062 50.894375 L 726.572969 49.390469 L 726.846406 48.00375 L 727.100312 46.75375 L 727.354219 45.640469 L 727.608125 44.663906 L 727.862031 43.824063 L 728.115937 43.140469 L 728.369844 42.593594 L 728.62375 42.183438 L 728.877656 41.929531 L 729.151094 41.812344 L 729.405 41.870938 L 729.658906 42.06625 L 729.912812 42.417813 L 730.166719 42.945156 L 730.420625 43.609219 L 730.674531 44.449063 L 730.928437 45.445156 L 731.182344 46.5975 L 731.43625 47.906094 L 731.709687 49.390469 L 731.963594 51.031094 L 732.2175 52.827969 L 732.471406 54.800625 L 732.725312 56.91 L 732.979219 59.195156 L 733.233125 61.636563 L 733.487031 64.214688 L 733.740937 66.968594 L 733.994844 69.859219 L 734.268281 72.925625 L 734.522187 76.109219 L 734.776094 79.449063 L 735.03 82.945156 L 735.283906 86.558438 L 735.537812 90.327969 L 735.791719 94.214688 L 736.045625 98.218594 L 736.299531 102.359219 L 736.572969 106.5975 L 736.826875 110.9725 L 737.080781 115.445156 L 737.334687 120.015469 L 737.588594 124.683438 L 737.8425 129.429531 L 738.096406 134.273281 L 738.350312 139.195156 L 738.604219 144.175625 L 738.858125 149.214688 L 739.131562 154.312344 L 739.385469 159.468594 L 739.639375 164.644375 L 739.893281 169.859219 L 740.147187 175.113125 L 740.401094 180.3475 L 740.908906 190.855313 L 741.162812 196.089688 L 741.43625 201.304531 L 741.690156 206.480313 L 741.944062 211.5975 L 742.197969 216.675625 L 742.451875 221.695156 L 742.705781 226.636563 L 742.959687 231.499844 L 743.213594 236.265469 L 743.4675 240.913906 L 743.721406 245.445156 L 743.994844 249.859219 L 744.24875 254.136563 L 744.502656 258.277188 L 744.756562 262.242031 L 745.010469 266.050625 L 745.264375 269.683438 L 745.518281 273.120938 L 745.772187 276.363125 L 746.026094 279.390469 L 746.299531 282.202969 L 746.553437 284.781094 L 746.807344 287.124844 L 747.06125 289.234219 L 747.315156 291.089688 L 747.569062 292.671719 L 747.822969 293.980313 L 748.076875 295.015469 L 748.330781 295.777188 L 748.584687 296.226406 L 748.858125 296.402188 L 749.112031 296.265469 L 749.365937 295.81625 L 749.619844 295.054531 L 749.87375 293.999844 L 750.127656 292.593594 L 750.381562 290.894375 L 750.635469 288.863125 L 750.889375 286.519375 L 751.162812 283.843594 L 751.416719 280.855313 L 751.670625 277.535 L 751.924531 273.921719 L 752.178437 269.976406 L 752.432344 265.738125 L 752.68625 261.187344 L 752.940156 256.343594 L 753.194062 251.226406 L 753.447969 245.81625 L 753.721406 240.132656 L 753.975312 234.214688 L 754.229219 228.042813 L 754.483125 221.636563 L 754.737031 215.015469 L 754.990937 208.179531 L 755.244844 201.167813 L 755.49875 193.999844 L 755.752656 186.656094 L 756.026094 179.195156 L 756.28 171.617031 L 756.533906 163.960781 L 756.787812 156.226406 L 757.041719 148.452969 L 757.549531 132.867031 L 757.803437 125.093594 L 758.057344 117.398281 L 758.31125 109.761563 L 758.584687 102.242031 L 758.838594 94.859219 L 759.0925 87.652188 L 759.346406 80.620938 L 759.600312 73.804531 L 759.854219 67.242031 L 760.108125 60.952969 L 760.362031 54.956875 L 760.615937 49.312344 L 760.889375 43.999844 L 761.143281 39.077969 L 761.397187 34.56625 L 761.651094 30.464688 L 761.905 26.831875 L 762.158906 23.667813 L 762.412812 20.992031 L 762.666719 18.843594 L 762.920625 17.202969 L 763.174531 16.12875 L 763.447969 15.601406 L 763.701875 15.640469 L 763.955781 16.265469 L 764.209687 17.456875 L 764.463594 19.25375 L 764.7175 21.617031 L 764.971406 24.585781 L 765.225312 28.120938 L 765.479219 32.242031 L 765.733125 36.91 L 766.006562 42.144375 L 766.260469 47.886563 L 766.514375 54.156094 L 766.768281 60.933438 L 767.022187 68.140469 L 767.276094 75.81625 L 767.53 83.882656 L 767.783906 92.300625 L 768.037812 101.070156 L 768.31125 110.132656 L 768.565156 119.429531 L 768.819062 128.94125 L 769.072969 138.609219 L 769.326875 148.374844 L 769.834687 168.062344 L 770.088594 177.867031 L 770.3425 187.554531 L 770.596406 197.105313 L 770.869844 206.460781 L 771.12375 215.542813 L 771.377656 224.331875 L 771.631562 232.730313 L 771.885469 240.738125 L 772.139375 248.277188 L 772.393281 255.327969 L 772.647187 261.792813 L 772.901094 267.69125 L 773.174531 272.964688 L 773.428437 277.554531 L 773.682344 281.460781 L 773.93625 284.644375 L 774.190156 287.085781 L 774.444062 288.765469 L 774.697969 289.663906 L 774.951875 289.800625 L 775.205781 289.156094 L 775.459687 287.730313 L 775.733125 285.523281 L 775.987031 282.574063 L 776.240937 278.882656 L 776.494844 274.488125 L 776.74875 269.390469 L 777.002656 263.667813 L 777.256562 257.320156 L 777.510469 250.425625 L 777.764375 243.00375 L 778.037812 235.113125 L 778.291719 226.831875 L 778.545625 218.179531 L 778.799531 209.25375 L 779.053437 200.093594 L 779.307344 190.796719 L 779.56125 181.382656 L 779.815156 171.949063 L 780.069062 162.574063 L 780.322969 153.296719 L 780.596406 144.195156 L 780.850312 135.327969 L 781.104219 126.773281 L 781.358125 118.589688 L 781.612031 110.81625 L 781.865937 103.511563 L 782.119844 96.75375 L 782.37375 90.542813 L 782.627656 84.956875 L 782.901094 79.995938 L 783.155 75.738125 L 783.408906 72.163906 L 783.662812 69.292813 L 783.916719 67.183438 L 784.170625 65.796719 L 784.424531 65.152188 L 784.678437 65.230313 L 784.932344 66.031094 L 785.18625 67.554531 L 785.459687 69.742031 L 785.713594 72.574063 L 785.9675 76.050625 L 786.221406 80.093594 L 786.475312 84.683438 L 786.729219 89.761563 L 786.983125 95.288906 L 787.237031 101.206875 L 787.490937 107.476406 L 787.764375 113.999844 L 788.018281 120.757656 L 788.272187 127.69125 L 788.526094 134.702969 L 788.78 141.773281 L 789.033906 148.824063 L 789.287812 155.796719 L 789.541719 162.652188 L 789.795625 169.312344 L 790.049531 175.757656 L 790.322969 181.91 L 790.576875 187.730313 L 790.830781 193.199063 L 791.084687 198.257656 L 791.338594 202.886563 L 791.5925 207.046719 L 791.846406 210.718594 L 792.100312 213.882656 L 792.354219 216.519375 L 792.608125 218.648281 L 792.881562 220.230313 L 793.135469 221.285 L 793.389375 221.812344 L 793.643281 221.812344 L 793.897187 221.304531 L 794.151094 220.327969 L 794.405 218.863125 L 794.658906 216.968594 L 794.912812 214.663906 L 795.18625 211.968594 L 795.440156 208.921719 L 795.694062 205.581875 L 795.947969 201.929531 L 796.201875 198.062344 L 796.455781 193.980313 L 796.709687 189.761563 L 796.963594 185.386563 L 797.2175 180.952969 L 797.471406 176.480313 L 797.744844 171.988125 L 797.99875 167.554531 L 798.252656 163.179531 L 798.506562 158.902188 L 798.760469 154.761563 L 799.014375 150.796719 L 799.268281 147.027188 L 799.522187 143.4725 L 799.776094 140.171719 L 800.049531 137.124844 L 800.303437 134.370938 L 800.557344 131.91 L 800.81125 129.761563 L 801.065156 127.906094 L 801.319062 126.402188 L 801.572969 125.19125 L 801.826875 124.331875 L 802.080781 123.785 L 802.334687 123.550625 L 802.608125 123.648281 L 802.862031 124.019375 L 803.115937 124.683438 L 803.369844 125.640469 L 803.62375 126.831875 L 803.877656 128.277188 L 804.131562 129.937344 L 804.385469 131.812344 L 804.639375 133.863125 L 804.912812 136.070156 L 805.166719 138.413906 L 805.420625 140.874844 L 805.674531 143.433438 L 805.928437 146.050625 L 806.182344 148.706875 L 806.43625 151.402188 L 806.944062 156.75375 L 807.197969 159.370938 L 807.471406 161.929531 L 807.725312 164.390469 L 807.979219 166.773281 L 808.233125 169.038906 L 808.487031 171.167813 L 808.740937 173.140469 L 808.994844 174.976406 L 809.24875 176.636563 L 809.502656 178.120938 L 809.776094 179.41 L 810.03 180.523281 L 810.283906 181.44125 L 810.537812 182.163906 L 810.791719 182.671719 L 811.045625 183.00375 L 811.299531 183.140469 L 811.553437 183.081875 L 811.807344 182.827969 L 812.06125 182.417813 L 812.334687 181.812344 L 812.588594 181.070156 L 812.8425 180.152188 L 813.096406 179.117031 L 813.350312 177.925625 L 813.604219 176.636563 L 813.858125 175.249844 L 814.112031 173.765469 L 814.365937 172.202969 L 814.639375 170.601406 L 814.893281 168.94125 L 815.401094 165.542813 L 815.655 163.824063 L 815.908906 162.144375 L 816.162812 160.484219 L 816.416719 158.863125 L 816.670625 157.281094 L 816.924531 155.777188 L 817.197969 154.351406 L 817.451875 153.023281 L 817.705781 151.773281 L 817.959687 150.640469 L 818.213594 149.624844 L 818.4675 148.706875 L 818.721406 147.925625 L 818.975312 147.281094 L 819.229219 146.75375 L 819.483125 146.363125 L 819.756562 146.089688 L 820.010469 145.9725 L 820.264375 145.9725 L 820.518281 146.089688 L 820.772187 146.324063 L 821.026094 146.695156 L 821.28 147.163906 L 821.533906 147.749844 L 821.787812 148.413906 L 822.06125 149.175625 L 822.315156 150.015469 L 822.569062 150.933438 L 822.822969 151.890469 L 823.076875 152.906094 L 823.584687 155.054531 L 824.346406 158.394375 L 824.619844 159.507656 L 824.87375 160.601406 L 825.127656 161.656094 L 825.381562 162.671719 L 825.635469 163.62875 L 825.889375 164.546719 L 826.143281 165.406094 L 826.397187 166.187344 L 826.651094 166.91 L 826.924531 167.554531 L 827.178437 168.101406 L 827.432344 168.589688 L 827.68625 168.980313 L 827.940156 169.292813 L 828.194062 169.507656 L 828.447969 169.644375 L 828.701875 169.683438 L 828.955781 169.663906 L 829.209687 169.546719 L 829.483125 169.351406 L 829.737031 169.0975 L 829.990937 168.765469 L 830.244844 168.355313 L 830.49875 167.906094 L 830.752656 167.398281 L 831.006562 166.851406 L 831.260469 166.265469 L 831.514375 165.640469 L 831.787812 164.976406 L 832.041719 164.312344 L 832.295625 163.62875 L 832.803437 162.2225 L 833.31125 160.855313 L 833.565156 160.19125 L 834.072969 158.94125 L 834.346406 158.374844 L 834.600312 157.827969 L 834.854219 157.320156 L 835.108125 156.851406 L 835.362031 156.44125 L 835.615937 156.070156 L 835.869844 155.757656 L 836.12375 155.484219 L 836.377656 155.269375 L 836.651094 155.113125 L 836.905 154.995938 L 837.158906 154.937344 L 837.412812 154.917813 L 837.666719 154.956875 L 837.920625 155.054531 L 838.174531 155.171719 L 838.428437 155.3475 L 838.682344 155.562344 L 838.93625 155.796719 L 839.209687 156.089688 L 839.463594 156.382656 L 839.7175 156.714688 L 840.225312 157.456875 L 840.733125 158.238125 L 840.987031 158.648281 L 841.514375 159.468594 L 841.768281 159.87875 L 842.276094 160.66 L 842.53 161.031094 L 843.037812 161.734219 L 843.291719 162.046719 L 843.545625 162.339688 L 843.799531 162.613125 L 844.072969 162.867031 L 844.326875 163.081875 L 844.580781 163.277188 L 844.834687 163.433438 L 845.088594 163.570156 L 845.3425 163.667813 L 845.596406 163.745938 L 845.850312 163.785 L 846.104219 163.804531 L 846.358125 163.785 L 846.631562 163.745938 L 846.885469 163.687344 L 847.139375 163.589688 L 847.393281 163.4725 L 847.647187 163.335781 L 847.901094 163.179531 L 848.408906 162.827969 L 848.662812 162.613125 L 848.93625 162.398281 L 849.951875 161.460781 L 850.205781 161.206875 L 850.459687 160.9725 L 850.713594 160.718594 L 851.221406 160.249844 L 851.494844 160.035 L 851.74875 159.820156 L 852.256562 159.429531 L 852.510469 159.25375 L 853.018281 158.94125 L 853.526094 158.706875 L 853.799531 158.609219 L 854.307344 158.492031 L 854.56125 158.452969 L 855.069062 158.413906 L 855.322969 158.433438 L 855.830781 158.511563 L 856.084687 158.589688 L 856.358125 158.667813 L 856.612031 158.745938 L 857.37375 159.0975 L 857.881562 159.370938 L 858.389375 159.683438 L 858.662812 159.839688 L 859.678437 160.464688 L 859.932344 160.601406 L 860.18625 160.757656 L 860.694062 161.031094 L 860.947969 161.148281 L 861.221406 161.265469 L 861.983125 161.558438 L 862.744844 161.734219 L 862.99875 161.773281 L 863.252656 161.792813 L 863.526094 161.812344 L 863.78 161.812344 L 864.541719 161.75375 L 864.795625 161.695156 L 865.049531 161.656094 L 865.303437 161.5975 L 865.81125 161.44125 L 866.084687 161.363125 L 866.338594 161.265469 L 866.5925 161.187344 L 867.100312 160.992031 L 867.354219 160.874844 L 868.115937 160.581875 L 868.389375 160.484219 L 868.897187 160.288906 L 869.912812 159.976406 L 870.674531 159.800625 L 870.947969 159.761563 L 871.201875 159.7225 L 871.963594 159.663906 L 872.471406 159.663906 L 872.725312 159.683438 L 872.979219 159.683438 L 873.252656 159.7225 L 873.506562 159.742031 L 874.268281 159.859219 L 874.776094 159.976406 L 875.03 160.015469 L 875.537812 160.132656 L 875.81125 160.210781 L 877.588594 160.620938 L 877.8425 160.66 L 878.096406 160.718594 L 878.62375 160.796719 L 879.131562 160.874844 L 879.385469 160.894375 L 879.639375 160.933438 L 879.893281 160.952969 L 880.147187 160.952969 L 880.401094 160.9725 L 881.43625 160.9725 L 881.690156 160.952969 L 881.944062 160.952969 L 882.705781 160.894375 L 882.959687 160.855313 L 883.233125 160.835781 L 883.740937 160.757656 L 883.994844 160.738125 L 885.264375 160.542813 L 885.537812 160.523281 L 886.045625 160.445156 L 886.299531 160.425625 L 886.807344 160.3475 L 887.822969 160.269375 L 888.096406 160.249844 L 888.604219 160.210781 L 888.858125 160.210781 L 889.112031 160.19125 L 890.401094 160.19125 L 890.655 160.210781 L 890.908906 160.210781 L 891.162812 160.230313 L 891.416719 160.230313 L 892.68625 160.327969 L 892.959687 160.3475 L 893.4675 160.386563 L 893.721406 160.425625 L 894.990937 160.523281 L 895.264375 160.542813 L 896.28 160.620938 L 896.533906 160.620938 L 896.787812 160.640469 L 897.041719 160.640469 L 897.295625 160.66 L 897.822969 160.66 L 898.076875 160.679531 L 899.0925 160.679531 L 899.346406 160.66 L 899.600312 160.66 L 900.127656 160.640469 L 900.381562 160.640469 L 900.635469 160.620938 L 900.889375 160.620938 L 901.397187 160.581875 L 901.651094 160.581875 L 902.158906 160.542813 L 902.412812 160.542813 L 902.68625 160.523281 L 903.194062 160.484219 L 903.447969 160.484219 L 903.955781 160.445156 L 904.209687 160.445156 L 904.463594 160.425625 L 904.7175 160.425625 L 904.971406 160.406094 L 905.49875 160.386563 L 906.006562 160.386563 L 906.260469 160.367031 L 908.057344 160.367031 L 908.31125 160.386563 L 909.072969 160.386563 L 909.326875 160.406094 L 909.580781 160.406094 L 909.834687 160.425625 L 910.362031 160.425625 L 910.615937 160.445156 L 910.869844 160.445156 L 911.12375 160.464688 L 911.377656 160.464688 L 911.631562 160.484219 L 911.885469 160.484219 L 912.139375 160.50375 L 912.666719 160.50375 L 912.920625 160.523281 L 913.428437 160.523281 L 913.682344 160.542813 L 914.444062 160.542813 L 914.697969 160.562344 L 917.002656 160.562344 L 917.276094 160.542813 L 917.783906 160.542813 " transform="matrix(0.2, 0, 0, 0.2, 0.494, 0.493)"/>
</g>
<path fill="none" stroke-width="0.2" stroke-linecap="butt" stroke-linejoin="miter" stroke="rgb(39.99939%, 39.99939%, 39.99939%)" stroke-opacity="1" stroke-miterlimit="3.25" d="M 37.354219 160.484219 L 37.354219 156.499844 " transform="matrix(0.2, 0, 0, 0.2, 0.494, 0.493)"/>
<g fill="rgb(39.99939%, 39.99939%, 39.99939%)" fill-opacity="1">
<use xlink:href="#glyph-0-1" x="5.963827" y="35.191271"/>
<use xlink:href="#glyph-0-2" x="7.075827" y="35.191271"/>
</g>
<g fill="rgb(39.99939%, 39.99939%, 39.99939%)" fill-opacity="1">
<use xlink:href="#glyph-0-3" x="7.623827" y="35.191271"/>
<use xlink:href="#glyph-0-4" x="8.735827" y="35.191271"/>
</g>
<path fill="none" stroke-width="0.2" stroke-linecap="butt" stroke-linejoin="miter" stroke="rgb(39.99939%, 39.99939%, 39.99939%)" stroke-opacity="1" stroke-miterlimit="3.25" d="M 79.287813 160.484219 L 79.287813 158.081875 " transform="matrix(0.2, 0, 0, 0.2, 0.494, 0.493)"/>
<path fill="none" stroke-width="0.2" stroke-linecap="butt" stroke-linejoin="miter" stroke="rgb(39.99939%, 39.99939%, 39.99939%)" stroke-opacity="1" stroke-miterlimit="3.25" d="M 121.221406 160.484219 L 121.221406 158.081875 " transform="matrix(0.2, 0, 0, 0.2, 0.494, 0.493)"/>
<path fill="none" stroke-width="0.2" stroke-linecap="butt" stroke-linejoin="miter" stroke="rgb(39.99939%, 39.99939%, 39.99939%)" stroke-opacity="1" stroke-miterlimit="3.25" d="M 163.155 160.484219 L 163.155 158.081875 " transform="matrix(0.2, 0, 0, 0.2, 0.494, 0.493)"/>
<path fill="none" stroke-width="0.2" stroke-linecap="butt" stroke-linejoin="miter" stroke="rgb(39.99939%, 39.99939%, 39.99939%)" stroke-opacity="1" stroke-miterlimit="3.25" d="M 205.088594 160.484219 L 205.088594 158.081875 " transform="matrix(0.2, 0, 0, 0.2, 0.494, 0.493)"/>
<path fill="none" stroke-width="0.2" stroke-linecap="butt" stroke-linejoin="miter" stroke="rgb(39.99939%, 39.99939%, 39.99939%)" stroke-opacity="1" stroke-miterlimit="3.25" d="M 247.022188 160.484219 L 247.022188 156.499844 " transform="matrix(0.2, 0, 0, 0.2, 0.494, 0.493)"/>
<g fill="rgb(39.99939%, 39.99939%, 39.99939%)" fill-opacity="1">
<use xlink:href="#glyph-0-1" x="47.899151" y="35.191271"/>
<use xlink:href="#glyph-0-2" x="49.011151" y="35.191271"/>
</g>
<g fill="rgb(39.99939%, 39.99939%, 39.99939%)" fill-opacity="1">
<use xlink:href="#glyph-0-5" x="49.559151" y="35.191271"/>
<use xlink:href="#glyph-0-1" x="50.671151" y="35.191271"/>
</g>
<path fill="none" stroke-width="0.2" stroke-linecap="butt" stroke-linejoin="miter" stroke="rgb(39.99939%, 39.99939%, 39.99939%)" stroke-opacity="1" stroke-miterlimit="3.25" d="M 288.955781 160.484219 L 288.955781 158.081875 " transform="matrix(0.2, 0, 0, 0.2, 0.494, 0.493)"/>
<path fill="none" stroke-width="0.2" stroke-linecap="butt" stroke-linejoin="miter" stroke="rgb(39.99939%, 39.99939%, 39.99939%)" stroke-opacity="1" stroke-miterlimit="3.25" d="M 330.889375 160.484219 L 330.889375 158.081875 " transform="matrix(0.2, 0, 0, 0.2, 0.494, 0.493)"/>
<path fill="none" stroke-width="0.2" stroke-linecap="butt" stroke-linejoin="miter" stroke="rgb(39.99939%, 39.99939%, 39.99939%)" stroke-opacity="1" stroke-miterlimit="3.25" d="M 372.822969 160.484219 L 372.822969 158.081875 " transform="matrix(0.2, 0, 0, 0.2, 0.494, 0.493)"/>
<path fill="none" stroke-width="0.2" stroke-linecap="butt" stroke-linejoin="miter" stroke="rgb(39.99939%, 39.99939%, 39.99939%)" stroke-opacity="1" stroke-miterlimit="3.25" d="M 414.756562 160.484219 L 414.756562 158.081875 " transform="matrix(0.2, 0, 0, 0.2, 0.494, 0.493)"/>
<path fill="none" stroke-width="0.2" stroke-linecap="butt" stroke-linejoin="miter" stroke="rgb(39.99939%, 39.99939%, 39.99939%)" stroke-opacity="1" stroke-miterlimit="3.25" d="M 456.709687 160.484219 L 456.709687 156.499844 " transform="matrix(0.2, 0, 0, 0.2, 0.494, 0.493)"/>
<g fill="rgb(39.99939%, 39.99939%, 39.99939%)" fill-opacity="1">
<use xlink:href="#glyph-0-1" x="89.834475" y="35.191271"/>
<use xlink:href="#glyph-0-2" x="90.946475" y="35.191271"/>
</g>
<g fill="rgb(39.99939%, 39.99939%, 39.99939%)" fill-opacity="1">
<use xlink:href="#glyph-0-5" x="91.494475" y="35.191271"/>
<use xlink:href="#glyph-0-4" x="92.606475" y="35.191271"/>
</g>
<path fill="none" stroke-width="0.2" stroke-linecap="butt" stroke-linejoin="miter" stroke="rgb(39.99939%, 39.99939%, 39.99939%)" stroke-opacity="1" stroke-miterlimit="3.25" d="M 498.643281 160.484219 L 498.643281 158.081875 " transform="matrix(0.2, 0, 0, 0.2, 0.494, 0.493)"/>
<path fill="none" stroke-width="0.2" stroke-linecap="butt" stroke-linejoin="miter" stroke="rgb(39.99939%, 39.99939%, 39.99939%)" stroke-opacity="1" stroke-miterlimit="3.25" d="M 540.576875 160.484219 L 540.576875 158.081875 " transform="matrix(0.2, 0, 0, 0.2, 0.494, 0.493)"/>
<path fill="none" stroke-width="0.2" stroke-linecap="butt" stroke-linejoin="miter" stroke="rgb(39.99939%, 39.99939%, 39.99939%)" stroke-opacity="1" stroke-miterlimit="3.25" d="M 582.510469 160.484219 L 582.510469 158.081875 " transform="matrix(0.2, 0, 0, 0.2, 0.494, 0.493)"/>
<path fill="none" stroke-width="0.2" stroke-linecap="butt" stroke-linejoin="miter" stroke="rgb(39.99939%, 39.99939%, 39.99939%)" stroke-opacity="1" stroke-miterlimit="3.25" d="M 624.444062 160.484219 L 624.444062 158.081875 " transform="matrix(0.2, 0, 0, 0.2, 0.494, 0.493)"/>
<path fill="none" stroke-width="0.2" stroke-linecap="butt" stroke-linejoin="miter" stroke="rgb(39.99939%, 39.99939%, 39.99939%)" stroke-opacity="1" stroke-miterlimit="3.25" d="M 666.377656 160.484219 L 666.377656 156.499844 " transform="matrix(0.2, 0, 0, 0.2, 0.494, 0.493)"/>
<g fill="rgb(39.99939%, 39.99939%, 39.99939%)" fill-opacity="1">
<use xlink:href="#glyph-0-1" x="131.769799" y="35.191271"/>
<use xlink:href="#glyph-0-2" x="132.881799" y="35.191271"/>
</g>
<g fill="rgb(39.99939%, 39.99939%, 39.99939%)" fill-opacity="1">
<use xlink:href="#glyph-0-6" x="133.429799" y="35.191271"/>
<use xlink:href="#glyph-0-1" x="134.541799" y="35.191271"/>
</g>
<path fill="none" stroke-width="0.2" stroke-linecap="butt" stroke-linejoin="miter" stroke="rgb(39.99939%, 39.99939%, 39.99939%)" stroke-opacity="1" stroke-miterlimit="3.25" d="M 708.31125 160.484219 L 708.31125 158.081875 " transform="matrix(0.2, 0, 0, 0.2, 0.494, 0.493)"/>
<path fill="none" stroke-width="0.2" stroke-linecap="butt" stroke-linejoin="miter" stroke="rgb(39.99939%, 39.99939%, 39.99939%)" stroke-opacity="1" stroke-miterlimit="3.25" d="M 750.244844 160.484219 L 750.244844 158.081875 " transform="matrix(0.2, 0, 0, 0.2, 0.494, 0.493)"/>
<path fill="none" stroke-width="0.2" stroke-linecap="butt" stroke-linejoin="miter" stroke="rgb(39.99939%, 39.99939%, 39.99939%)" stroke-opacity="1" stroke-miterlimit="3.25" d="M 792.178437 160.484219 L 792.178437 158.081875 " transform="matrix(0.2, 0, 0, 0.2, 0.494, 0.493)"/>
<path fill="none" stroke-width="0.2" stroke-linecap="butt" stroke-linejoin="miter" stroke="rgb(39.99939%, 39.99939%, 39.99939%)" stroke-opacity="1" stroke-miterlimit="3.25" d="M 834.112031 160.484219 L 834.112031 158.081875 " transform="matrix(0.2, 0, 0, 0.2, 0.494, 0.493)"/>
<path fill="none" stroke-width="0.2" stroke-linecap="butt" stroke-linejoin="miter" stroke="rgb(39.99939%, 39.99939%, 39.99939%)" stroke-opacity="1" stroke-miterlimit="3.25" d="M 876.045625 160.484219 L 876.045625 156.499844 " transform="matrix(0.2, 0, 0, 0.2, 0.494, 0.493)"/>
<g fill="rgb(39.99939%, 39.99939%, 39.99939%)" fill-opacity="1">
<use xlink:href="#glyph-0-1" x="173.705122" y="35.191271"/>
<use xlink:href="#glyph-0-2" x="174.817122" y="35.191271"/>
</g>
<g fill="rgb(39.99939%, 39.99939%, 39.99939%)" fill-opacity="1">
<use xlink:href="#glyph-0-6" x="175.365122" y="35.191271"/>
<use xlink:href="#glyph-0-4" x="176.477122" y="35.191271"/>
</g>
<path fill="none" stroke-width="0.2" stroke-linecap="butt" stroke-linejoin="miter" stroke="rgb(39.99939%, 39.99939%, 39.99939%)" stroke-opacity="1" stroke-miterlimit="3.25" d="M 917.99875 160.484219 L 917.99875 158.081875 " transform="matrix(0.2, 0, 0, 0.2, 0.494, 0.493)"/>
<g clip-path="url(#clip-1)">
<path fill="none" stroke-width="0.2" stroke-linecap="butt" stroke-linejoin="miter" stroke="rgb(39.99939%, 39.99939%, 39.99939%)" stroke-opacity="1" stroke-miterlimit="3.25" d="M 0.49875 160.484219 L 936.494844 160.484219 " transform="matrix(0.2, 0, 0, 0.2, 0.494, 0.493)"/>
</g>
</g>
</defs>
<use xlink:href="#source-5" transform="matrix(1, 0, 0, 1, 1, 1)"/>
<path fill-rule="nonzero" fill="rgb(39.99939%, 0%, 39.99939%)" fill-opacity="1" d="M 134.753906 63.863281 C 134.382812 64.613281 133.734375 64.722656 132.488281 64.722656 C 131.832031 64.722656 131.832031 65.71875 132.488281 65.71875 C 133.734375 65.71875 134.828125 64.835938 135.199219 64.085938 C 135.347656 63.792969 134.902344 63.570312 134.753906 63.863281 "/>
<path fill-rule="nonzero" fill="rgb(39.99939%, 0%, 39.99939%)" fill-opacity="1" d="M 72.128906 66.578125 C 72.503906 65.832031 73.152344 65.71875 74.398438 65.71875 C 75.054688 65.71875 75.054688 64.722656 74.398438 64.722656 C 73.152344 64.722656 72.058594 65.609375 71.683594 66.355469 C 71.535156 66.648438 71.984375 66.871094 72.128906 66.578125 "/>
<path fill="none" stroke-width="0.99628" stroke-linecap="butt" stroke-linejoin="miter" stroke="rgb(39.99939%, 0%, 39.99939%)" stroke-opacity="1" stroke-miterlimit="10" d="M 37.195281 -32.428656 L -20.894563 -32.428656 " transform="matrix(1, 0, 0, -1, 95.293, 32.794)"/>
<path fill-rule="nonzero" fill="rgb(39.99939%, 0%, 39.99939%)" fill-opacity="1" d="M 72.128906 66.355469 C 71.757812 65.609375 70.660156 64.722656 69.417969 64.722656 C 68.757812 64.722656 68.757812 65.71875 69.417969 65.71875 C 70.660156 65.71875 71.308594 65.832031 71.683594 66.578125 C 71.832031 66.871094 72.277344 66.648438 72.128906 66.355469 "/>
<path fill-rule="nonzero" fill="rgb(39.99939%, 0%, 39.99939%)" fill-opacity="1" d="M 8.613281 64.085938 C 8.984375 64.835938 10.082031 65.71875 11.324219 65.71875 C 11.984375 65.71875 11.984375 64.722656 11.324219 64.722656 C 10.082031 64.722656 9.429688 64.613281 9.058594 63.863281 C 8.910156 63.570312 8.464844 63.792969 8.613281 64.085938 "/>
<path fill="none" stroke-width="0.99628" stroke-linecap="butt" stroke-linejoin="miter" stroke="rgb(39.99939%, 0%, 39.99939%)" stroke-opacity="1" stroke-miterlimit="10" d="M -25.875031 -32.428656 L -83.968781 -32.428656 " transform="matrix(1, 0, 0, -1, 95.293, 32.794)"/>
<g fill="rgb(39.99939%, 0%, 39.99939%)" fill-opacity="1">
<use xlink:href="#glyph-1-1" x="64.091" y="72.261"/>
<use xlink:href="#glyph-1-2" x="65.35376" y="72.261"/>
<use xlink:href="#glyph-1-3" x="68.086501" y="72.261"/>
<use xlink:href="#glyph-1-4" x="70.115384" y="72.261"/>
<use xlink:href="#glyph-1-1" x="72.848125" y="72.261"/>
<use xlink:href="#glyph-1-5" x="74.110885" y="72.261"/>
<use xlink:href="#glyph-1-6" x="75.918599" y="72.261"/>
<use xlink:href="#glyph-1-7" x="78.461054" y="72.261"/>
</g>
<path fill-rule="nonzero" fill="rgb(19.999695%, 0%, 59.999084%)" fill-opacity="1" d="M 161.683594 63.863281 C 161.3125 64.613281 160.664062 64.722656 159.417969 64.722656 C 158.761719 64.722656 158.761719 65.71875 159.417969 65.71875 C 160.664062 65.71875 161.757812 64.835938 162.132812 64.085938 C 162.277344 63.792969 161.832031 63.570312 161.683594 63.863281 "/>
<path fill-rule="nonzero" fill="rgb(19.999695%, 0%, 59.999084%)" fill-opacity="1" d="M 149.375 66.578125 C 149.75 65.832031 150.398438 65.71875 151.644531 65.71875 C 152.300781 65.71875 152.300781 64.722656 151.644531 64.722656 C 150.398438 64.722656 149.304688 65.609375 148.929688 66.355469 C 148.78125 66.648438 149.226562 66.871094 149.375 66.578125 "/>
<path fill="none" stroke-width="0.99628" stroke-linecap="butt" stroke-linejoin="miter" stroke="rgb(19.999695%, 0%, 59.999084%)" stroke-opacity="1" stroke-miterlimit="10" d="M 64.124969 -32.428656 L 56.351531 -32.428656 " transform="matrix(1, 0, 0, -1, 95.293, 32.794)"/>
<path fill-rule="nonzero" fill="rgb(19.999695%, 0%, 59.999084%)" fill-opacity="1" d="M 149.375 66.355469 C 149 65.609375 147.90625 64.722656 146.660156 64.722656 C 146.003906 64.722656 146.003906 65.71875 146.660156 65.71875 C 147.90625 65.71875 148.554688 65.832031 148.929688 66.578125 C 149.078125 66.871094 149.523438 66.648438 149.375 66.355469 "/>
<path fill-rule="nonzero" fill="rgb(19.999695%, 0%, 59.999084%)" fill-opacity="1" d="M 136.171875 64.085938 C 136.546875 64.835938 137.640625 65.71875 138.886719 65.71875 C 139.542969 65.71875 139.542969 64.722656 138.886719 64.722656 C 137.640625 64.722656 136.992188 64.613281 136.617188 63.863281 C 136.472656 63.570312 136.027344 63.792969 136.171875 64.085938 "/>
<path fill="none" stroke-width="0.99628" stroke-linecap="butt" stroke-linejoin="miter" stroke="rgb(19.999695%, 0%, 59.999084%)" stroke-opacity="1" stroke-miterlimit="10" d="M 51.367156 -32.428656 L 43.593719 -32.428656 " transform="matrix(1, 0, 0, -1, 95.293, 32.794)"/>
<g fill="rgb(19.999695%, 0%, 59.999084%)" fill-opacity="1">
<use xlink:href="#glyph-1-8" x="141.567" y="72.433"/>
<use xlink:href="#glyph-1-9" x="145.770221" y="72.433"/>
<use xlink:href="#glyph-1-5" x="148.122391" y="72.433"/>
<use xlink:href="#glyph-1-10" x="149.930105" y="72.433"/>
<use xlink:href="#glyph-1-9" x="152.576669" y="72.433"/>
<use xlink:href="#glyph-1-5" x="154.928839" y="72.433"/>
</g>
<path fill-rule="nonzero" fill="rgb(0%, 0%, 79.998779%)" fill-opacity="1" d="M 185.78125 63.863281 C 185.40625 64.613281 184.757812 64.722656 183.511719 64.722656 C 182.855469 64.722656 182.855469 65.71875 183.511719 65.71875 C 184.757812 65.71875 185.851562 64.835938 186.226562 64.085938 C 186.371094 63.792969 185.925781 63.570312 185.78125 63.863281 "/>
<path fill-rule="nonzero" fill="rgb(0%, 0%, 79.998779%)" fill-opacity="1" d="M 174.886719 66.578125 C 175.261719 65.832031 175.910156 65.71875 177.15625 65.71875 C 177.8125 65.71875 177.8125 64.722656 177.15625 64.722656 C 175.910156 64.722656 174.816406 65.609375 174.441406 66.355469 C 174.292969 66.648438 174.738281 66.871094 174.886719 66.578125 "/>
<path fill="none" stroke-width="0.99628" stroke-linecap="butt" stroke-linejoin="miter" stroke="rgb(0%, 0%, 79.998779%)" stroke-opacity="1" stroke-miterlimit="10" d="M 88.218719 -32.428656 L 81.86325 -32.428656 " transform="matrix(1, 0, 0, -1, 95.293, 32.794)"/>
<path fill-rule="nonzero" fill="rgb(0%, 0%, 79.998779%)" fill-opacity="1" d="M 174.886719 66.355469 C 174.511719 65.609375 173.417969 64.722656 172.171875 64.722656 C 171.515625 64.722656 171.515625 65.71875 172.171875 65.71875 C 173.417969 65.71875 174.066406 65.832031 174.441406 66.578125 C 174.589844 66.871094 175.035156 66.648438 174.886719 66.355469 "/>
<path fill-rule="nonzero" fill="rgb(0%, 0%, 79.998779%)" fill-opacity="1" d="M 163.101562 64.085938 C 163.476562 64.835938 164.570312 65.71875 165.816406 65.71875 C 166.472656 65.71875 166.472656 64.722656 165.816406 64.722656 C 164.570312 64.722656 163.921875 64.613281 163.546875 63.863281 C 163.402344 63.570312 162.957031 63.792969 163.101562 64.085938 "/>
<path fill="none" stroke-width="0.99628" stroke-linecap="butt" stroke-linejoin="miter" stroke="rgb(0%, 0%, 79.998779%)" stroke-opacity="1" stroke-miterlimit="10" d="M 76.878875 -32.428656 L 70.523406 -32.428656 " transform="matrix(1, 0, 0, -1, 95.293, 32.794)"/>
<g fill="rgb(0%, 0%, 79.998779%)" fill-opacity="1">
<use xlink:href="#glyph-1-5" x="164.648" y="72.261"/>
<use xlink:href="#glyph-1-1" x="166.455714" y="72.261"/>
<use xlink:href="#glyph-1-2" x="167.718473" y="72.261"/>
<use xlink:href="#glyph-1-10" x="170.451214" y="72.261"/>
<use xlink:href="#glyph-1-11" x="173.097779" y="72.261"/>
<use xlink:href="#glyph-1-12" x="175.83052" y="72.261"/>
</g>
<g fill="rgb(0%, 0%, 79.998779%)" fill-opacity="1">
<use xlink:href="#glyph-1-13" x="178.327646" y="72.261"/>
<use xlink:href="#glyph-1-2" x="181.942575" y="72.261"/>
</g>
</svg>
